{
	"profiles": {
		"account-balance": {
			"entryPointPath": "AccountBalance/AccountBalanceAPI",
			"classpathBuildAggregate": "AdapterBuildAggregate",
			"mainBuildAggregate": "PSD2BuildAggregate",
			"clusterName": "ApiServerCluster",
			"keyStoreName": "api.webservices.com.jks",
			"taskDefinitionDesiredSet": "1",
			"deploy": "true"
		},
		"account-schedule-payments": {
			"entryPointPath": "AccountSchedulePayments/AccountSchedulePaymentsApi",
			"classpathBuildAggregate": "AdapterBuildAggregate",
			"mainBuildAggregate": "PSD2BuildAggregate",
			"clusterName": "ApiServerCluster",
			"keyStoreName": "api.webservices.com.jks",
			"taskDefinitionDesiredSet": "1",
			"deploy": "true"
		},
		"account-beneficiaries": {
			"entryPointPath": "AccountBeneficiaries/AccountBeneficiariesAPI",
			"classpathBuildAggregate": "AdapterBuildAggregate",
			"mainBuildAggregate": "PSD2BuildAggregate",
			"clusterName": "ApiServerCluster",
			"keyStoreName": "api.webservices.com.jks",
			"taskDefinitionDesiredSet": "1",
			"deploy": "true"
		},
		"account-statements": {
			"entryPointPath": "AccountStatements/AccountStatementsAPI",
			"classpathBuildAggregate": "AdapterBuildAggregate",
			"mainBuildAggregate": "PSD2BuildAggregate",
			"clusterName": "ApiServerCluster",
			"keyStoreName": "api.webservices.com.jks",
			"taskDefinitionDesiredSet": "1",
			"deploy": "true"
		},
		"account-directdebits": {
			"entryPointPath": "AccountDirectDebits/AccountDirectDebitsAPI",
			"entrypointCheck": "AccountDirectDebits",
			"classpathBuildAggregate": "AdapterBuildAggregate",
			"mainBuildAggregate": "PSD2BuildAggregate",
			"clusterName": "ApiServerCluster",
			"keyStoreName": "api.webservices.com.jks",
			"taskDefinitionDesiredSet": "1",
			"deploy": "true"
		},
		"account-information": {
			"entryPointPath": "AccountInformation/AccountInformationAPI",
			"classpathBuildAggregate": "AdapterBuildAggregate",
			"mainBuildAggregate": "PSD2BuildAggregate",
			"clusterName": "ApiServerCluster",
			"keyStoreName": "api.webservices.com.jks",
			"taskDefinitionDesiredSet": "1",
			"deploy": "true"
		},
		"account-product": {
			"entryPointPath": "AccountProduct/AccountProductAPI",
			"classpathBuildAggregate": "AdapterBuildAggregate",
			"mainBuildAggregate": "PSD2BuildAggregate",
			"clusterName": "ApiServerCluster",
			"keyStoreName": "api.webservices.com.jks",
			"taskDefinitionDesiredSet": "1",
			"deploy": "true"
		},
		"account-request": {
			"entryPointPath": "AccountRequests/AccountRequestsAPI",
			"entrypointCheck": "AccountRequests",
			"classpathBuildAggregate": "AdapterBuildAggregate",
			"mainBuildAggregate": "PSD2BuildAggregate",
			"clusterName": "ApiServerCluster",
			"keyStoreName": "api.webservices.com.jks",
			"taskDefinitionDesiredSet": "1",
			"deploy": "true"
		},
		"account-standingorder": {
			"entryPointPath": "AccountStandingOrder/AccountStandingOrderAPI",
			"entrypointCheck": "AccountStandingOrder",
			"classpathBuildAggregate": "AdapterBuildAggregate",
			"mainBuildAggregate": "PSD2BuildAggregate",
			"clusterName": "ApiServerCluster",
			"keyStoreName": "api.webservices.com.jks",
			"taskDefinitionDesiredSet": "1",
			"deploy": "true"
		},
		"account-standingorder": {
			"entryPointPath": "AccountStandingOrder/AccountStandingOrderAPI",
			"entrypointCheck": "AccountStandingOrder",
			"classpathBuildAggregate": "AdapterBuildAggregate",
			"mainBuildAggregate": "PSD2BuildAggregate",
			"clusterName": "ApiServerCluster",
			"keyStoreName": "api.webservices.com.jks",
			"taskDefinitionDesiredSet": "1",
			"deploy": "true"
		},
		"account-transaction": {
			"entryPointPath": "AccountTransaction/AccountTransactionAPI",
			"classpathBuildAggregate": "AdapterBuildAggregate",
			"mainBuildAggregate": "PSD2BuildAggregate",
			"clusterName": "ApiServerCluster",
			"keyStoreName": "api.webservices.com.jks",
			"taskDefinitionDesiredSet": "1",
			"deploy": "true"
		},
		"consent-revocation": {
			"entryPointPath": "ConsentRevocation/ConsentRevocationAPI",
			"classpathBuildAggregate": "AdapterBuildAggregate",
			"mainBuildAggregate": "PSD2BuildAggregate",
			"clusterName": "ApiServerCluster",
			"keyStoreName": "api.webservices.com.jks",
			"taskDefinitionDesiredSet": "1",
			"deploy": "true"
		},
		"integration-operations": {
			"entryPointPath": "IntegrationAPI",
			"entrypointCheck": "IntegrationAPI",
			"classpathBuildAggregate": "AdapterBuildAggregate",
			"mainBuildAggregate": "PSD2BuildAggregate",
			"clusterName": "ApiServerCluster",
			"keyStoreName": "tppapplication.webservices.com.jks",
			"taskDefinitionDesiredSet": "1",
			"deploy": "true"
		},
		"payment-setup": {
			"entryPointPath": "PaymentSetup/PaymentSetupAPI",
			"classpathBuildAggregate": "AdapterBuildAggregate",
			"mainBuildAggregate": "PSD2BuildAggregate",
			"clusterName": "ApiServerCluster",
			"keyStoreName": "api.webservices.com.jks",
			"taskDefinitionDesiredSet": "1",
			"deploy": "true"
		},
		"payment-submission": {
			"entryPointPath": "PaymentSubmission/PaymentSubmissionAPI",
			"classpathBuildAggregate": "AdapterBuildAggregate",
			"mainBuildAggregate": "PSD2BuildAggregate",
			"clusterName": "ApiServerCluster",
			"keyStoreName": "api.webservices.com.jks",
			"taskDefinitionDesiredSet": "1",
			"deploy": "true"
		},
		"payment-submission-retrieve": {
			"entryPointPath": "PaymentSubmissionRetrieve/PaymentSubmissionRetrieveAPI",
			"mainBuildAggregate": "PSD2BuildAggregate",
			"clusterName": "ApiServerCluster",
			"keyStoreName": "api.webservices.com.jks",
			"taskDefinitionDesiredSet": "1",
			"deploy": "true"
		},
		"domestic-payment-consents": {
			"entryPointPath": "DomesticPaymentConsents/DomesticPaymentConsentsAPI",
			"classpathBuildAggregate": "AdapterBuildAggregate",
			"mainBuildAggregate": "PSD2BuildAggregate",
			"clusterName": "ApiServerCluster",
			"keyStoreName": "api.webservices.com.jks",
			"taskDefinitionDesiredSet": "1",
			"deploy": "true"
		},
		"domestic-payments": {
			"entryPointPath": "DomesticPayments/DomesticPaymentsAPI",
			"classpathBuildAggregate": "AdapterBuildAggregate",
			"mainBuildAggregate": "PSD2BuildAggregate",
			"clusterName": "ApiServerCluster",
			"keyStoreName": "api.webservices.com.jks",
			"taskDefinitionDesiredSet": "1",
			"deploy": "true"
		},
		"domestic-standing-orders-consents": {
			"entryPointPath": "DomesticStandingOrdersConsents/DomesticStandingOrdersConsentsAPI",
			"classpathBuildAggregate": "AdapterBuildAggregate",
			"mainBuildAggregate": "PSD2BuildAggregate",
			"clusterName": "ApiServerCluster",
			"keyStoreName": "api.webservices.com.jks",
			"taskDefinitionDesiredSet": "1",
			"deploy": "true"
		},
		"domestic-standing-order": {
			"entryPointPath": "DomesticStandingOrder/DomesticStandingOrderAPI",
			"classpathBuildAggregate": "AdapterBuildAggregate",
			"mainBuildAggregate": "PSD2BuildAggregate",
			"clusterName": "ApiServerCluster",
			"keyStoreName": "api.webservices.com.jks",
			"taskDefinitionDesiredSet": "1",
			"deploy": "true"
		},
		"domestic-scheduled-payment-consents": {
			"entryPointPath": "DomesticScheduledPaymentConsents",
			"classpathBuildAggregate": "AdapterBuildAggregate",
			"mainBuildAggregate": "PSD2BuildAggregate",
			"clusterName": "ApiServerCluster",
			"keyStoreName": "api.webservices.com.jks",
			"taskDefinitionDesiredSet": "1",
			"deploy": "true"
		},
		"international-payments": {
		   "entryPointPath": "InternationalPayments",
		   "classpathBuildAggregate": "AdapterBuildAggregate",
		   "mainBuildAggregate": "PSD2BuildAggregate",
		   "clusterName": "ApiServerCluster",
		   "keyStoreName": "api.webservices.com.jks",
		   "taskDefinitionDesiredSet": "1",
		   "deploy": "true"
		},
		"international-payment-consents": {
		   "entryPointPath": "InternationalPaymentConsents",
		   "classpathBuildAggregate": "AdapterBuildAggregate",
		   "mainBuildAggregate": "PSD2BuildAggregate",
		   "clusterName": "ApiServerCluster",
		   "keyStoreName": "api.webservices.com.jks",
		   "taskDefinitionDesiredSet": "1",
		   "deploy": "true"
		},
		"domestic-scheduled-payments": {
			"entryPointPath": "DomesticScheduledPayments",
			"classpathBuildAggregate": "AdapterBuildAggregate",
			"mainBuildAggregate": "PSD2BuildAggregate",
			"clusterName": "ApiServerCluster",
			"keyStoreName": "api.webservices.com.jks",
			"taskDefinitionDesiredSet": "1",
			"deploy": "true"
		},
		"tpp-block": {
			"entryPointPath": "TppBlock/TppBlockApi",
			"mainBuildAggregate": "PSD2BuildAggregate",
			"clusterName": "ApiServerCluster",
			"keyStoreName": "api.webservices.com.jks",
			"taskDefinitionDesiredSet": "1",
			"deploy": "true"
		},
		"consent-application": {
			"entryPointPath": "ConsentApplication",
			"classpathBuildAggregate": "AdapterBuildAggregate",
			"otherBuildAggregate": "consent-web-application:PSD2BuildAggregate,aisp-consent-application:PSD2BuildAggregate,pisp-consent-application:PSD2BuildAggregate,cisp-consent-application:PSD2BuildAggregate",
			"mainBuildAggregate": "PSD2BuildAggregate",
			"clusterName": "ConsentServerCluster",
			"keyStoreName": "consentapplication.webservices.com.jks",
			"taskDefinitionDesiredSet": "1",
			"deploy": "true"
		},
		"saas-application": {
			"entryPointPath": "SaaS",
			"entrypointCheck": "SaaS",
			"classpathBuildAggregate": "PSD2BuildAggregate",
			"mainBuildAggregate": "AdapterBuildAggregate",
			"clusterName": "SaaSServerCluster",
			"keyStoreName": "api.webservices.com.jks",
			"taskDefinitionDesiredSet": "1",
			"deploy": "true"
		},
		"tpp-portal": {
			"entryPointPath": "TppPortal",
			"mainBuildAggregate": "PortalBuildAggregate",
			"clusterName": "TppPortalCluster",
			"keyStoreName": "tppapplication.webservices.com.jks",
			"taskDefinitionDesiredSet": "1",
			"gitProjectRepo": "git@bitbucket.org:cg-psd2/psd2-tpp-release-mcr-0.7.1-frankfurttestenv.git",
			"deploy": "true"
		},
		"dynamic-client": {
			"entryPointPath": "DynamicClient/DynamicClientAPI",
			"mainBuildAggregate": "PSD2BuildAggregate",
			"clusterName": "ApiServerCluster",
			"keyStoreName": "tppapplication.webservices.com.jks",
			"taskDefinitionDesiredSet": "1",
			"deploy": "true",
		},
		"edge-server": {
			"entryPointPath": "ASPSPEdgeService",
			"entrypointCheck": "ASPSPEdgeService",
			"mainBuildAggregate": "PSD2BuildAggregate",
			"clusterName": "EdgeServerCluster",
			"keyStoreName": "edgeserver.webservices.com.jks",
			"taskDefinitionDesiredSet": "1",
			"deploy": "true"
		},
		"account-balance-fs": {
			"entryPointPath": "AccountBalanceMockFoundationService",
			"mainBuildAggregate": "AdapterBuildAggregate",
			"clusterName": "FoundationServicesCluster",
			"keyStoreName": "api.webservices.com.jks",
			"taskDefinitionDesiredSet": "1",
			"deploy": "true"
		},
		"account-statements-fs": {
			"entryPointPath": "AccountStatementsMockFoundationService",
			"mainBuildAggregate": "AdapterBuildAggregate",
			"clusterName": "FoundationServicesClusterAISP",
			"keyStoreName": "api.webservices.com.jks",
			"taskDefinitionDesiredSet": "1",
			"deploy": "true"
		},
		"account-credit-card-balance-fs": {
			"entryPointPath": "AccountCreditCardBalanceMockFoundationService",
			"mainBuildAggregate": "AdapterBuildAggregate",
			"clusterName": "FoundationServicesCluster",
			"keyStoreName": "api.webservices.com.jks",
			"taskDefinitionDesiredSet": "1",
			"deploy": "true"
		},
		"account-beneficiaries-fs": {
			"entryPointPath": "AccountBeneficiariesMockFoundationService",
			"mainBuildAggregate": "AdapterBuildAggregate",
			"clusterName": "FoundationServicesCluster",
			"keyStoreName": "api.webservices.com.jks",
			"taskDefinitionDesiredSet": "1",
			"deploy": "true"
		},
		"account-information-fs": {
			"entryPointPath": "AccountInformationMockFoundationService",
			"mainBuildAggregate": "AdapterBuildAggregate",
			"clusterName": "FoundationServicesCluster",
			"keyStoreName": "api.webservices.com.jks",
			"taskDefinitionDesiredSet": "1",
			"deploy": "true"
		},
		"account-information-raml-fs": {
			"entryPointPath": "AccountInformationRamlMockFoundationService",
			"mainBuildAggregate": "AdapterBuildAggregate",
			"clusterName": "FoundationServicesCluster",
			"keyStoreName": "api.webservices.com.jks",
			"taskDefinitionDesiredSet": "1",
			"deploy": "true"
		},
		"account-balance-mule-fs": {
			"entryPointPath": "AccountBalanceMuleMockFoundationService",
			"mainBuildAggregate": "AdapterBuildAggregate",
			"clusterName": "FoundationServicesCluster",
			"keyStoreName": "api.webservices.com.jks",
			"taskDefinitionDesiredSet": "1",
			"deploy": "true"
		},
		"account-transactions-raml-fs": {
			"entryPointPath": "AccountTransactionsRamlMockFoundationService",
			"mainBuildAggregate": "AdapterBuildAggregate",
			"clusterName": "FoundationServicesCluster",
			"keyStoreName": "api.webservices.com.jks",
			"taskDefinitionDesiredSet": "1",
			"deploy": "true"
		},
		"account-standing-order-fs": {
			"entryPointPath": "AccountStandingOrderMockFoundationService",
			"mainBuildAggregate": "AdapterBuildAggregate",
			"clusterName": "FoundationServicesCluster",
			"keyStoreName": "api.webservices.com.jks",
			"taskDefinitionDesiredSet": "1",
			"deploy": "true"
		},
		"account-standing-order-raml-fs": {
			"entryPointPath": "AccountStandingOrderRamlMockFoundationService",
			"mainBuildAggregate": "AdapterBuildAggregate",
			"clusterName": "FoundationServicesCluster",
			"keyStoreName": "api.webservices.com.jks",
			"taskDefinitionDesiredSet": "1",
			"deploy": "true"
		},
		"account-statements-fs": {
			"entryPointPath": "AccountStatementsMockFoundationService",
			"mainBuildAggregate": "AdapterBuildAggregate",
			"clusterName": "FoundationServicesCluster",
			"keyStoreName": "api.webservices.com.jks",
			"taskDefinitionDesiredSet": "1",
			"deploy": "true"
		},
		"account-transactions-fs": {
			"entryPointPath": "AccountTransactionsMockFoundationService",
			"mainBuildAggregate": "AdapterBuildAggregate",
			"clusterName": "FoundationServicesCluster",
			"keyStoreName": "api.webservices.com.jks",
			"taskDefinitionDesiredSet": "1",
			"deploy": "true"
		},
		"account-product-fs": {
			"entryPointPath": "AccountProductMockFoundationService",
			"mainBuildAggregate": "AdapterBuildAggregate",
			"clusterName": "FoundationServicesCluster",
			"keyStoreName": "api.webservices.com.jks",
			"taskDefinitionDesiredSet": "1",
			"deploy": "true"
		},
		"account-scheduled-payments-fs": {
			"entryPointPath": "AccountScheduledPaymentsMockFoundationService",
			"mainBuildAggregate": "AdapterBuildAggregate",
			"clusterName": "FoundationServicesCluster",
			"keyStoreName": "api.webservices.com.jks",
			"taskDefinitionDesiredSet": "1",
			"deploy": "true"
		},
		"domestic-scheduled-payment-consents-fs": {
			"entryPointPath": "DomesticScheduledPaymentConsentsMockFoundationService",
			"mainBuildAggregate": "AdapterBuildAggregate",
			"clusterName": "FoundationServicesCluster",
			"keyStoreName": "api.webservices.com.jks",
			"taskDefinitionDesiredSet": "1",
			"deploy": "true"
		},
		"domestic-scheduled-payments-fs": {
			"entryPointPath": "DomesticScheduledPaymentsMockFoundationService",
			"mainBuildAggregate": "AdapterBuildAggregate",
			"clusterName": "FoundationServicesCluster",
			"keyStoreName": "api.webservices.com.jks",
			"taskDefinitionDesiredSet": "1",
			"deploy": "true"
		},
		"domestic-standing-orders-consents-fs": {
			"entryPointPath": "DomesticStandingOrdersConsentsMockFoundationService",
			"mainBuildAggregate": "AdapterBuildAggregate",
			"clusterName": "FoundationServicesCluster",
			"keyStoreName": "api.webservices.com.jks",
			"taskDefinitionDesiredSet": "1",
			"deploy": "true"
		},
		"domestic-payment-consents-fs": {
			"entryPointPath": "DomesticPaymentConsentsMockFoundationService",
			"mainBuildAggregate": "AdapterBuildAggregate",
			"clusterName": "FoundationServicesCluster",
			"keyStoreName": "api.webservices.com.jks",
			"taskDefinitionDesiredSet": "1",
			"deploy": "true"
		},
		"domestic-payments-fs": {
			"entryPointPath": "DomesticPaymentsMockFoundationService",
			"mainBuildAggregate": "AdapterBuildAggregate",
			"clusterName": "FoundationServicesCluster",
			"keyStoreName": "api.webservices.com.jks",
			"taskDefinitionDesiredSet": "1",
			"deploy": "true"
		},
		"domestic-standing-order-fs": {
			"entryPointPath": "DomesticStandingOrderMockFoundationService",
			"mainBuildAggregate": "AdapterBuildAggregate",
			"clusterName": "FoundationServicesCluster",
			"keyStoreName": "api.webservices.com.jks",
			"taskDefinitionDesiredSet": "1",
			"deploy": "true"
		},
		"authentication-application-fs": {
			"entryPointPath": "AuthenticationApplicationMockFoundationService",
			"mainBuildAggregate": "AdapterBuildAggregate",
			"clusterName": "FoundationServicesCluster",
			"keyStoreName": "api.webservices.com.jks",
			"taskDefinitionDesiredSet": "1",
			"deploy": "true"
		},
		"authentication-application-mule-fs": {
			"entryPointPath": "AuthenticationApplicationMuleMockFoundationService",
			"mainBuildAggregate": "AdapterBuildAggregate",
			"clusterName": "FoundationServicesCluster",
			"keyStoreName": "api.webservices.com.jks",
			"taskDefinitionDesiredSet": "1",
			"deploy": "true"
		},
		"customer-account-profile-fs": {
			"entryPointPath": "CustomerAccountProfileMockFoundationService",
			"mainBuildAggregate": "AdapterBuildAggregate",
			"clusterName": "FoundationServicesCluster",
			"keyStoreName": "api.webservices.com.jks",
			"taskDefinitionDesiredSet": "1",
			"deploy": "true"
		},
		"customer-account-profile-mule-fs": {
			"entryPointPath": "CustomerAccountProfileMuleMockFoundationService",
			"mainBuildAggregate": "AdapterBuildAggregate",
			"clusterName": "FoundationServicesCluster",
			"keyStoreName": "api.webservices.com.jks",
			"taskDefinitionDesiredSet": "1",
			"deploy": "true"
		},
		"customer-account-profile-mule-pisp-fs": {
			"entryPointPath": "CustomerAccountProfileMulePispMockFoundationService",
			"mainBuildAggregate": "AdapterBuildAggregate",
			"clusterName": "FoundationServicesCluster",
			"keyStoreName": "api.webservices.com.jks",
			"taskDefinitionDesiredSet": "1",
			"deploy": "true"
		},
		"payment-pre-stage-validation-fs": {
			"entryPointPath": "PaymentPreStageValidationMockFoundationService",
			"mainBuildAggregate": "AdapterBuildAggregate",
			"clusterName": "FoundationServicesCluster",
			"keyStoreName": "api.webservices.com.jks",
			"taskDefinitionDesiredSet": "1",
			"deploy": "true"
		},
		"payment-setup-insert-update-fs": {
			"entryPointPath": "PaymentSetupInsertUpdateMockFoundationService",
			"mainBuildAggregate": "AdapterBuildAggregate",
			"clusterName": "FoundationServicesCluster",
			"keyStoreName": "api.webservices.com.jks",
			"taskDefinitionDesiredSet": "1",
			"deploy": "true"
		},
		"payment-retrieval-fs": {
			"entryPointPath": "PaymentRetrievalMockFoundationService",
			"mainBuildAggregate": "AdapterBuildAggregate",
			"clusterName": "FoundationServicesCluster",
			"keyStoreName": "api.webservices.com.jks",
			"taskDefinitionDesiredSet": "1",
			"deploy": "true"
		},
		"payment-submission-create-fs": {
			"entryPointPath": "PaymentSubmissionCreateMockFoundationService",
			"mainBuildAggregate": "AdapterBuildAggregate",
			"clusterName": "FoundationServicesCluster",
			"keyStoreName": "api.webservices.com.jks",
			"taskDefinitionDesiredSet": "1",
			"deploy": "true"
		},
		"payment-validation-fs": {
			"entryPointPath": "PaymentValidationMockFoundationService",
			"mainBuildAggregate": "AdapterBuildAggregate",
			"clusterName": "FoundationServicesCluster",
			"keyStoreName": "api.webservices.com.jks",
			"taskDefinitionDesiredSet": "1",
			"deploy": "true"
		},
		"payment-pre-submission-validation-fs": {
			"entryPointPath": "PaymentPreSubmissionValidationMockFoundationService",
			"mainBuildAggregate": "AdapterBuildAggregate",
			"clusterName": "FoundationServicesCluster",
			"keyStoreName": "api.webservices.com.jks",
			"taskDefinitionDesiredSet": "1",
			"deploy": "true"
		}
	},
	"environment": {
		"boiTest": {
			"releaseName": "cma-2.0",
			"cipherBucketName": "boitest-api-platform-encrypted-data-test",
			"region": "eu-central-1",
			"skipTest": "true",
			"codeTagging": "",
			"codeCheckout": "",
			"proxy": {
				"http_proxy": "proxy.webservices.com:3128",
				"https_proxy": "proxy.webservices.com:3128",
				"no_proxy": "169.254.169.254,.webservices.com,.mockservices.com"
			},
			"profiles": {
				"config-server": {
					"others": "native",
					"gitBoiCredentialsId": "56f76e32-4bd0-4cc8-a95b-cba3a21c9a18",
					"bitbucketUiRepo": "cg-psd2/psd2-config-ui-boitest-mcr-0.7.1-frankfurtcma",
					"bitbucketApplicationRepo": "cg-psd2/psd2-config-application-boiTest-mcr-0.7.1_FrankfurtCMA",
					"bitbucketHost": "bitbucket.org",
					"entryPointPath": "PSD2SpringCloudConfigServer",
					"entrypointCheck": "PSD2SpringCloudConfigServer",
					"mainBuildAggregate": "PSD2BuildAggregate",
					"clusterName": "ConfigServerCluster",
					"keyStoreName": "config.webservices.com.jks",
					"taskDefinitionDesiredSet": "1",
					"deploy": "true"
				},
				"eureka-server": {
					"others": "native",
					"entryPointPath": "EurekaServer",
					"mainBuildAggregate": "PSD2BuildAggregate",
					"clusterName": "EurekaServerCluster",
					"keyStoreName": "discovery.webservices.com.jks",
					"taskDefinitionDesiredSet": "1",
					"deploy": "true"
				}
			},
			"versions": {
				"v1": {
					"gitProjectRepo": "git@bitbucket.org:psdapi/psd2-release-cma-3.0.git",
					"gitDevposConfigRepo": "git@bitbucket.org:cg-psd2/psd2-devops-config-ams-test2.git",
					"releaseName": "cma-2.0",
					"cipherBucketName": "ads-test-psd2-sit2-encrypted-data-test2"
				},
				"v2": {
					"gitProjectRepo": "git@bitbucket.org:psdapi/psd2-release-cma-3.0.git",
					"gitDevposConfigRepo": "git@bitbucket.org:cg-psd2/psd2-devops-config-ams-test2.git",
					"releaseName": "cma-2.0",
					"cipherBucketName": "ads-test-psd2-sit2-encrypted-data-test2"
				},
				"v3": {
					"gitProjectRepo": "git@bitbucket.org:psdapi/psd2-release-cma-3.0.git",
					"gitDevposConfigRepo": "git@bitbucket.org:cg-psd2/psd2-devops-config-ams-test2.git",
					"releaseName": "cma-2.0",
					"cipherBucketName": "ads-test-psd2-sit2-encrypted-data-test2"
				},
				"NA": {
					"gitProjectRepo": "git@bitbucket.org:psdapi/psd2-release-cma-3.0.git",
					"gitDevposConfigRepo": "git@bitbucket.org:cg-psd2/psd2-devops-config-ams-test2.git",
					"releaseName": "cma-2.0",
					"cipherBucketName": "ads-test-psd2-sit2-encrypted-data-test2"
				}
			},
			"aws_credential": "AWS_Cred_boiTest2",
			"aws_pull_credential": "AWS_Cred_boiTest2",
			"gitCredentialsId": "a208511f-9cb3-44e8-aadb-e789d8c34630",
			"gitBranch": "feature/Drop2B",
			"gitDevopsBranch": "master"
		}
	}
}