{
    "AWSTemplateFormatVersion": "2010-09-09",
    "Description": "CloudFormation Template to provision the Splunk Master, Splunk Indexers and Search Head instances",
    "Parameters": {
		"KeyName": {
			"Type": "AWS::EC2::KeyPair::KeyName",
			"Description": "Name of an existing EC2 KeyPair to enable SSH access to the bastion host",
			"MinLength": "1",
			"MaxLength": "64",
			"AllowedPattern": "[-_ a-zA-Z0-9]*",
			"ConstraintDescription": "can contain only alphanumeric characters, spaces, dashes and underscores."
		},
        "Environment": {
			"Type": "String",
			"Description": "Environment to be provisioned",
			"Default": "dev",
			"AllowedValues": ["dev", "test", "sit", "uat", "preprod", "prod"]
		},
		"ClientName": {
			"Type": "String",
			"Description": "Client name"
		},
		"BOISystemHealthMonitors": {
			"Description": "SNS Topic for Scale Up",
			"Type": "String"
		},
		"ArnOfSplunkClbSslCertificate": {
			"Description": "ARN of the certificates to be associated with ELB",
			"Type": "String"
        },
		"SplunkClassicLoadBalancerSecurityGroup": {
			"Type": "String",
			"Description": "Security Group for Splunk Classic Load Balancer"
        },
        "SplunkSecurityGroup": {
			"Type": "String",
			"Description": "Security Group for Splunk Server"
        },
        "BOIScaleUpMonitors": {
			"Description": "SNS Topic for Scale Up",
			"Type": "String"
		},
		"MuleRuntimeSecurityGroup": {
			"Type": "String",
			"Description": "Security Group for Splunk Server"
        },
		"ZuulSecurityGroup": {
			"Type": "String",
			"Description": "Security Group for Splunk Server"
        },
		"EurekaSecurityGroup": {
			"Type": "String",
			"Description": "Security Group for Splunk Server"
        },
		"ConfigSecurityGroup": {
			"Type": "String",
			"Description": "Security Group for Splunk Server"
        },
		"ConfigUtilitySecurityGroup": {
			"Type": "String",
			"Description": "Security Group for Splunk Server"
        },
		"ConsentSecurityGroup": {
			"Type": "String",
			"Description": "Security Group for Splunk Server"
        },
		"AuthenticationSecurityGroup": {
			"Type": "String",
			"Description": "Security Group for Splunk Server"
        },
		"TPPPortalSecurityGroup": {
			"Type": "String",
			"Description": "Security Group for Splunk Server"
        },
		"MicroservicesSecurityGroup": {
			"Type": "String",
			"Description": "Security Group for Splunk Server"
        },
		"NetscalerMGMTSecurityGroup": {
			"Type": "String",
			"Description": "Security Group for Splunk Server"
        },
		"BastionSecurityGroup": {
			"Description": "SecurityGroup for bastion host",
			"Type": "String"
		},
		"DatabaseSecurityGroup": {
			"Type": "String",
			"Description": "Security Group for Splunk Instances"
        },
		"PingFederateAdminSecurityGroup": {
			"Type": "String",
			"Description": "Security Group for Splunk Instances"
        },
		"PingFederateRuntimeSecurityGroup": {
			"Type": "String",
			"Description": "Security Group for Splunk Instances"
        },
		"LDAPSecurityGroup": {
			"Type": "String",
			"Description": "Security Group for Splunk Instances"
        },
		"BOIScaleDownMonitors": {
			"Description": "SNS Topic for Scale Down",
			"Type": "String"
		},
		"BOIEC2Monitors": {
			"Description": "SNS Topic for Scale Down",
			"Type": "String"
		},
        "SplunkS3Bucket": {
			"Type": "String",
			"Default": "api-platform-backup-splunk",
			"Description": "Plain text S3 bucket"
        },
		"SplunkCLBAccessLogsBucket": {
			"Description": "Contains css, js and static images for devportal page and Ssam and PF login page (PF page not needed after AZ AD connectivity).",
			"Default": "api-platform-splunk-clb",
			"Type": "String"
		},
		"CloudTrailS3Bucket": {
			"Description": "Contains Cloud Trail logs region.",
			"Default": "api-platform-cloudtrails",
			"Type": "String"
		},
		"ALBAccessLogsBucket": {
			"Description": "ALB Access log bucker",
			"Default": "api-platform-alb",
			"Type": "String"
		},
		"ProxyCLBAccessLogsBucket": {
			"Description": "Proxy CLB Access log bucket",
			"Default": "api-platform-proxy-clb",
			"Type": "String"
		},
		"LDAPCLBAccessLogsBucket": {
			"Description": "LDAP CLB Access log bucket",
			"Default": "api-platform-ldap-clb",
			"Type": "String"
		},
		"CloudFormationS3Bucket": {
			"Type": "String",
			"Default": "",
			"Description": "CloudFormation S3 bucket"
		},
        "LoggingSubnetAZ1": {
			"Description": "Subnet associated with Splunk for AZ #1",
			"Type": "String"
		},
		"LoggingSubnetAZ2": {
			"Description": "Subnet associated with Splunk for AZ #2",
			"Type": "String"
		},
		"LoggingNACL": {
			"Description": "Logging NACL",
			"Type": "String"
		},
		"HttpProxyIporDNS": {
			"Description": "IP address or DNS name of the http proxy",
			"Type": "String"
		},
		"SplunkTargetGroup": {
			"Type": "String",
			"Description": "SplunkTargetGroup ARN"
		},
		"SplunkSearchHeadTargetGroup": {
			"Type": "String",
			"Description": "SplunkSearchHeadTargetGroup ARN"
		},
		"PrivateHostedZoneId": {
			"Description": "HostedZoneID of the private Hostedzone",
			"Type": "String"
		},
		"PrivateDomainName": {
			"Description": "Domain Name of the project",
			"Type": "String",
			"Default": "webservices.com"
		},
		"SplunkFromEmailAddress": {
			"Description": "Email ID for Splunk email notification",
			"Type": "String"
		},
		"BastionSubnetCidrBlocks": {
			"Type": "CommaDelimitedList",
			"Description": "Cidr block of BastionSubnetAZ1",
			"Default": "10.1.20.128/28, 10.1.20.144/28"
		},
		"NetScalerNSIPSubnetCidrBlocks": {
			"Type": "CommaDelimitedList",
			"Description": "Cidr block of NetScalerNSIPSubnetAZ1",
			"Default": "10.1.17.0/26, 10.1.17.64/26"
		},
		"LoggingSubnetCidrBlocks": {
			"Type": "CommaDelimitedList",
			"Description": "Cidr block of LoggingSubnetAZ1",
			"Default": "10.1.23.192/28, 10.1.23.208/28"
		},
		"MuleRuntimeSubnetCidrBlocks": {
			"Type": "CommaDelimitedList",
			"Description": "Cidr block of MuleRuntimeSubnetAZ1",
			"Default": "10.1.22.0/28, 10.1.22.16/28"
		},
		"FederationSubnetCidrBlocks": {
			"Type": "CommaDelimitedList",
			"Description": "Cidr block of FederationSubnetAZ1",
			"Default": "10.1.22.32/28, 10.1.22.48/28"
		},
		"LDAPSubnetCidrBlocks": {
			"Type": "CommaDelimitedList",
			"Description": "Cidr block of LDAPSubnetAZ1",
			"Default": "10.1.23.0/28, 10.1.23.16/28"
		},	
		"ZuulSubnetCidrBlocks": {
			"Type": "CommaDelimitedList",
			"Description": "Cidr block of ZuulSubnetAZ1",
			"Default": "10.1.23.32/28, 10.1.23.48/28"
		},
		"EurekaSubnetCidrBlocks": {
			"Type": "CommaDelimitedList",
			"Description": "Cidr block of EurekaSubnetAZ1",
			"Default": "10.1.23.64/28, 10.1.23.80/28"
		},
		"UISubnetCidrBlocks": {
			"Type": "CommaDelimitedList",
			"Description": "Cidr block of UISubnetAZ1",
			"Default": "10.1.23.96/28, 10.1.23.112/28"
		},
		"MicroservicesSubnetCidrBlocks": {
			"Type": "CommaDelimitedList",
			"Description": "Cidr block of MicroservicesSubnetAZ1",
			"Default": "10.1.21.0/26, 10.1.21.64/26"
		},
		"DatabaseSubnetCidrBlocks": {
			"Type": "CommaDelimitedList",
			"Description": "Cidr block of DatabaseSubnetAZ1",
			"Default": "10.1.23.160/28, 10.1.23.176/28"
		},
		"VPCCidrBlock": {
			"Type": "String",
			"Description": "Cidr block of the VPC",
			"Default": "10.1.16.0/20",
			"AllowedPattern": "(\\d{1,3}).(\\d{1,3}).(\\d{1,3}).(\\d{1,3})/(\\d{1,2})",
			"MaxLength": 18,
			"MinLength": 9
		}
    },
    "Mappings": {
        "RegionToAmiMapForSplunk": {
			"us-east-1": {
				"SplunkAmi": "ami-0e579973"
			},
			"us-west-2": {
				"SplunkAmi": "ami-3425964c"
			},
			"eu-west-1": {
				"SplunkAmi": "ami-e293089b"
			},
			"eu-central-1": {
				"SplunkAmi": "ami-b968bad6"
			}
		}
    },
    "Resources": {
		"SplunkInstanceRole": {
			"Type": "AWS::IAM::Role",
			"Properties": {
				"AssumeRolePolicyDocument": {
					"Version": "2012-10-17",
					"Statement": [{
						"Effect": "Allow",
						"Principal": {
							"Service": [
								"ec2.amazonaws.com",
								"ssm.amazonaws.com"
							]
						},
						"Action": ["sts:AssumeRole"]
					}]
				},
				"Path": "/",
				"Policies": [{
						"PolicyName": "route53-domain-update-policy",
						"PolicyDocument": {
							"Version": "2012-10-17",
							"Statement": [{
								"Effect": "Allow",
								"Action": "route53:ChangeResourceRecordSets",
								"Resource": [{
									"Fn::Join": ["/", ["arn:aws:route53:::hostedzone", {
										"Ref": "PrivateHostedZoneId"
									}]]
								}]
							}]
						}
					},
					{
						"PolicyName": "cloudwatch-log-agent-policy",
						"PolicyDocument": {
							"Version": "2012-10-17",
							"Statement": [{
									"Effect": "Allow",
									"Action": [
										"logs:CreateLogGroup",
										"logs:CreateLogStream",
										"logs:PutLogEvents",
										"logs:DescribeLogStreams"
									],
									"Resource": [{
										"Fn::Join": ["", ["arn:aws:logs:", {
												"Ref": "AWS::Region"
											}, ":",
											{
												"Ref": "AWS::AccountId"
											}, ":log-group:/var/log/MongoHost_",
											{
												"Ref": "ClientName"
											},
											{
												"Ref": "Environment"
											}, ":*"
										]]
									}]
								},
								{
									"Effect": "Allow",
									"Action": [
										"ec2:DescribeTags"
									],
									"Resource": [
										"*"
									]
								}
							]
						}
					},
					{
						"PolicyName": "ssm-policy",
						"PolicyDocument": {
							"Version": "2012-10-17",
							"Statement": [{
									"Effect": "Allow",
									"Action": [
										"ec2messages:GetMessages",
										"ec2messages:AcknowledgeMessage",
										"ec2messages:DeleteMessage",
										"ec2messages:FailMessage",
										"ec2messages:GetEndpoint",
										"ec2messages:SendReply",
										"ssm:DescribeInstanceProperties",
										"ssm:SendCommand",
										"ssm:GetDocument",
										"ssm:DescribeDocumentParameters"
									],
									"Resource": [
										"*"
									]
								},
								{
									"Effect": "Allow",
									"Action": [
										"ssm:UpdateInstanceInformation",
										"ssm:ListInstanceAssociations",
										"ssm:UpdateInstanceAssociationStatus"
									],
									"Resource": [{
										"Fn::Join": [":", ["arn:aws:ec2", {
												"Ref": "AWS::Region"
											},
											{
												"Ref": "AWS::AccountId"
											}, "instance/*"
										]]
									}]
								},
								{
									"Effect": "Allow",
									"Action": [
										"ssm:ListAssociations",
										"ssm:UpdateInstanceAssociationStatus"
									],
									"Resource": [{
										"Fn::Join": [":", ["arn:aws:ssm",
											{
												"Ref": "AWS::Region"
											},
											{
												"Ref": "AWS::AccountId"
											}, "*"
										]]
									}]
								}
							]
						}
					},
					{
						"PolicyName": "create-volume",
						"PolicyDocument": {
							"Version": "2012-10-17",
							"Statement": [{
								"Effect": "Allow",
								"Action": [
									"ec2:CreateTags",
									"ec2:CreateVolume",
									"ec2:DescribeSnapshots",
									"ec2:DescribeInstances"
								],
								"Resource": [
									"*"
								]
							}]
						}
					},
					{
						"PolicyName": "attach-volume",
						"PolicyDocument": {
							"Version": "2012-10-17",
							"Statement": [{
								"Effect": "Allow",
								"Action": [
									"ec2:AttachVolume"
								],
								"Resource": [
									"*"
								]
							}]
						}
					},
					{
						"PolicyName": "create-snapshot",
						"PolicyDocument": {
							"Version": "2012-10-17",
							"Statement": [{
								"Effect": "Allow",
								"Action": [
									"ec2:CreateSnapshot",
									"ec2:DescribeVolumes"
								],
								"Resource": [
									"*"
								]
							}]
						}
					},
					{
						"PolicyName": "splunk-backup",
						"PolicyDocument": {
							"Version": "2012-10-17",
							"Statement": [{
								"Effect": "Allow",
								"Action": "s3:ListAllMyBuckets",
								"Resource": "arn:aws:s3:::*"
							},
							{
								"Effect": "Allow",
								"Action": "s3:*",
								"Resource": [
								{
											"Fn::Join": ["", ["arn:aws:s3:::", {
												"Ref": "ClientName"
											}, "-", {
												"Ref": "SplunkS3Bucket"
											}, "-", {
												"Ref": "Environment"
											}]]
										},
										{
											"Fn::Join": ["", ["arn:aws:s3:::", {
												"Ref": "ClientName"
											}, "-", {
												"Ref": "SplunkS3Bucket"
											}, "-", {
												"Ref": "Environment"
											}, "/*"]]
										}]
							}]
						}
					},
					{
						"PolicyName": "s3-bucket-access",
						"PolicyDocument": {
							"Version": "2012-10-17",
							"Statement": [{
									"Effect": "Allow",
									"Action": "s3:ListAllMyBuckets",
									"Resource": "arn:aws:s3:::*"
								},
								{
									"Effect": "Allow",
									"Action": [
										"s3:GetObject",
										"s3:ListBucket"
									],
									"Resource": [{
											"Fn::Join": ["", ["arn:aws:s3:::", {
												"Ref": "ClientName"
											}, "-", {
												"Ref": "CloudFormationS3Bucket"
											}, "-", {
												"Ref": "Environment"
											}]]
										},
										{
											"Fn::Join": ["", ["arn:aws:s3:::", {
												"Ref": "ClientName"
											}, "-", {
												"Ref": "CloudFormationS3Bucket"
											}, "-", {
												"Ref": "Environment"
											}, "/*"]]
										},
										{
											"Fn::Join": ["", ["arn:aws:s3:::", {
												"Ref": "ClientName"
											}, "-", {
												"Ref": "LDAPCLBAccessLogsBucket"
											}, "-", {
												"Ref": "Environment"
											}]]
										},
										{
											"Fn::Join": ["", ["arn:aws:s3:::", {
												"Ref": "ClientName"
											}, "-", {
												"Ref": "LDAPCLBAccessLogsBucket"
											}, "-", {
												"Ref": "Environment"
											}, "/*"]]
										},
										{
											"Fn::Join": ["", ["arn:aws:s3:::", {
												"Ref": "ClientName"
											}, "-", {
												"Ref": "SplunkCLBAccessLogsBucket"
											}, "-", {
												"Ref": "Environment"
											}]]
										},
										{
											"Fn::Join": ["", ["arn:aws:s3:::", {
												"Ref": "ClientName"
											}, "-", {
												"Ref": "SplunkCLBAccessLogsBucket"
											}, "-", {
												"Ref": "Environment"
											}, "/*"]]
										},
										{
											"Fn::Join": ["", ["arn:aws:s3:::", {
												"Ref": "ClientName"
											}, "-", {
												"Ref": "ProxyCLBAccessLogsBucket"
											}, "-", {
												"Ref": "Environment"
											}]]
										},
										{
											"Fn::Join": ["", ["arn:aws:s3:::", {
												"Ref": "ClientName"
											}, "-", {
												"Ref": "ProxyCLBAccessLogsBucket"
											}, "-", {
												"Ref": "Environment"
											}, "/*"]]
										},
										{
											"Fn::Join": ["", ["arn:aws:s3:::", {
												"Ref": "ClientName"
											}, "-", {
												"Ref": "ALBAccessLogsBucket"
											}, "-", {
												"Ref": "Environment"
											}]]
										},
										{
											"Fn::Join": ["", ["arn:aws:s3:::", {
												"Ref": "ClientName"
											}, "-", {
												"Ref": "ALBAccessLogsBucket"
											}, "-", {
												"Ref": "Environment"
											}, "/*"]]
										},
										{
											"Fn::Join": ["", ["arn:aws:s3:::", {
												"Ref": "ClientName"
											}, "-", {
												"Ref": "CloudTrailS3Bucket"
											}, "-", {
												"Ref": "Environment"
											}]]
										},
										{
											"Fn::Join": ["", ["arn:aws:s3:::", {
												"Ref": "ClientName"
											}, "-", {
												"Ref": "CloudTrailS3Bucket"
											}, "-", {
												"Ref": "Environment"
											}, "/*"]]
										}
									]
								}
							]
						}
					}
				]
			}
		},
		"InstanceProfileForSplunkInstanceRole": {
			"Type": "AWS::IAM::InstanceProfile",
			"Properties": {
				"Roles": [{
					"Ref": "SplunkInstanceRole"
				}]
			}
		},
		"SSHBastionToSplunkIngress": {
			"Type": "AWS::EC2::SecurityGroupIngress",
			"Properties": {
				"FromPort": "22",
				"GroupId": {
					"Ref": "SplunkSecurityGroup"
				},
				"IpProtocol": "tcp",
				"SourceSecurityGroupId": {
					"Ref": "BastionSecurityGroup"
				},
				"ToPort": "22"
			}
		},
		"HTTPSMuleRuntimetoCLBIngress": {
			"Type": "AWS::EC2::SecurityGroupIngress",
			"Properties": {
				"GroupId": {
					"Ref": "SplunkClassicLoadBalancerSecurityGroup"
				},
				"IpProtocol": "tcp",
				"FromPort": "443",
				"ToPort": "443",
				"SourceSecurityGroupId" : {
					"Ref": "MuleRuntimeSecurityGroup"
				}
			}
		},
		"HTTPSZuultoCLBIngress": {
			"Type": "AWS::EC2::SecurityGroupIngress",
			"Properties": {
				"GroupId": {
					"Ref": "SplunkClassicLoadBalancerSecurityGroup"
				},
				"IpProtocol": "tcp",
				"FromPort": "443",
				"ToPort": "443",
				"SourceSecurityGroupId" : {
					"Ref": "ZuulSecurityGroup"
				}
			}
		},
		"HTTPSEurekatoCLBIngress": {
			"Type": "AWS::EC2::SecurityGroupIngress",
			"Properties": {
				"GroupId": {
					"Ref": "SplunkClassicLoadBalancerSecurityGroup"
				},
				"IpProtocol": "tcp",
				"FromPort": "443",
				"ToPort": "443",
				"SourceSecurityGroupId" : {
					"Ref": "EurekaSecurityGroup"
				}
			}
		},
		"HTTPSConfigtoCLBIngress": {
			"Type": "AWS::EC2::SecurityGroupIngress",
			"Properties": {
				"GroupId": {
					"Ref": "SplunkClassicLoadBalancerSecurityGroup"
				},
				"IpProtocol": "tcp",
				"FromPort": "443",
				"ToPort": "443",
				"SourceSecurityGroupId" : {
					"Ref": "ConfigSecurityGroup"
				}
			}
		},
		"HTTPSConfigUtilitytoCLBIngress": {
			"Type": "AWS::EC2::SecurityGroupIngress",
			"Properties": {
				"GroupId": {
					"Ref": "SplunkClassicLoadBalancerSecurityGroup"
				},
				"IpProtocol": "tcp",
				"FromPort": "443",
				"ToPort": "443",
				"SourceSecurityGroupId" : {
					"Ref": "ConfigUtilitySecurityGroup"
				}
			}
		},
		"HTTPSConsenttoCLBIngress": {
			"Type": "AWS::EC2::SecurityGroupIngress",
			"Properties": {
				"GroupId": {
					"Ref": "SplunkClassicLoadBalancerSecurityGroup"
				},
				"IpProtocol": "tcp",
				"FromPort": "443",
				"ToPort": "443",
				"SourceSecurityGroupId" : {
					"Ref": "ConsentSecurityGroup"
				}
			}
		},
		"HTTPSAuthenticationtoCLBIngress": {
			"Type": "AWS::EC2::SecurityGroupIngress",
			"Properties": {
				"GroupId": {
					"Ref": "SplunkClassicLoadBalancerSecurityGroup"
				},
				"IpProtocol": "tcp",
				"FromPort": "443",
				"ToPort": "443",
				"SourceSecurityGroupId" : {
					"Ref": "AuthenticationSecurityGroup"
				}
			}
		},
		"HTTPSTPPPortaltoCLBIngress": {
			"Type": "AWS::EC2::SecurityGroupIngress",
			"Properties": {
				"GroupId": {
					"Ref": "SplunkClassicLoadBalancerSecurityGroup"
				},
				"IpProtocol": "tcp",
				"FromPort": "443",
				"ToPort": "443",
				"SourceSecurityGroupId" : {
					"Ref": "TPPPortalSecurityGroup"
				}
			}
		},
		"HTTPSMicroservicestoCLBIngress": {
			"Type": "AWS::EC2::SecurityGroupIngress",
			"Properties": {
				"GroupId": {
					"Ref": "SplunkClassicLoadBalancerSecurityGroup"
				},
				"IpProtocol": "tcp",
				"FromPort": "443",
				"ToPort": "443",
				"SourceSecurityGroupId" : {
					"Ref": "MicroservicesSecurityGroup"
				}
			}
		},
		"SplunkToSplunkIngress": {
			"Type": "AWS::EC2::SecurityGroupIngress",
			"Properties": {
				"GroupId": {
					"Ref": "SplunkSecurityGroup"
				},
				"IpProtocol": "tcp",
				"FromPort": "0",
				"ToPort": "65535",
				"SourceSecurityGroupId" : {
					"Ref": "SplunkSecurityGroup"
				}
			}
		},
		"MongoToSplunkIngress": {
			"Type": "AWS::EC2::SecurityGroupIngress",
			"Properties": {
				"GroupId": {
					"Ref": "SplunkSecurityGroup"
				},
				"IpProtocol": "tcp",
				"FromPort": "9997",
				"ToPort": "9997",
				"SourceSecurityGroupId" : {
					"Ref": "DatabaseSecurityGroup"
				}
			}
		},
		"PingFederateRuntimeToSplunkIngress": {
			"Type": "AWS::EC2::SecurityGroupIngress",
			"Properties": {
				"GroupId": {
					"Ref": "SplunkSecurityGroup"
				},
				"IpProtocol": "tcp",
				"FromPort": "9997",
				"ToPort": "9997",
				"SourceSecurityGroupId" : {
					"Ref": "PingFederateRuntimeSecurityGroup"
				}
			}
		},
		"PingFederateAdminToSplunkIngress": {
			"Type": "AWS::EC2::SecurityGroupIngress",
			"Properties": {
				"GroupId": {
					"Ref": "SplunkSecurityGroup"
				},
				"IpProtocol": "tcp",
				"FromPort": "9997",
				"ToPort": "9997",
				"SourceSecurityGroupId" : {
					"Ref": "PingFederateAdminSecurityGroup"
				}
			}
		},
		"LDAPSecurityGroupToSplunkIngress": {
			"Type": "AWS::EC2::SecurityGroupIngress",
			"Properties": {
				"GroupId": {
					"Ref": "SplunkSecurityGroup"
				},
				"IpProtocol": "tcp",
				"FromPort": "9997",
				"ToPort": "9997",
				"SourceSecurityGroupId" : {
					"Ref": "LDAPSecurityGroup"
				}
			}
		},
		"TCPSplunkCLBtoSplunkIngress": {
			"Type": "AWS::EC2::SecurityGroupIngress",
			"Properties": {
				"GroupId": {
					"Ref": "SplunkSecurityGroup"
				},
				"IpProtocol": "tcp",
				"FromPort": "514",
				"ToPort": "514",
				"SourceSecurityGroupId" : {
					"Ref": "SplunkClassicLoadBalancerSecurityGroup"
				}
			}
		},
		"HTTPSSplunkCLBtoSplunkIngress": {
			"Type": "AWS::EC2::SecurityGroupIngress",
			"Properties": {
				"GroupId": {
					"Ref": "SplunkSecurityGroup"
				},
				"IpProtocol": "tcp",
				"FromPort": "8088",
				"ToPort": "8088",
				"SourceSecurityGroupId" : {
					"Ref": "SplunkClassicLoadBalancerSecurityGroup"
				}
			}
		},
		"TCPNetscalertoCLBIngress": {
			"Type": "AWS::EC2::SecurityGroupIngress",
			"Properties": {
				"GroupId": {
					"Ref": "SplunkClassicLoadBalancerSecurityGroup"
				},
				"IpProtocol": "tcp",
				"FromPort": "514",
				"ToPort": "514",
				"SourceSecurityGroupId" : {
					"Ref": "NetscalerMGMTSecurityGroup"
				}
			}
		},		
		
		"InboundNACLEntryFromMuleRuntimeAZ1": {
			"Type": "AWS::EC2::NetworkAclEntry",
			"Metadata": {
				"Comment": "Network ACL Entry for inbound traffic For MuleRuntime Subnet"
			},
			"Properties": {
				"NetworkAclId": {
					"Ref": "LoggingNACL"
				},
				"RuleNumber": "100",
				"Protocol": "6",
				"RuleAction": "allow",
				"Egress": "false",
				"CidrBlock": {
					"Fn::Select" : [ "0", {
						"Ref" : "MicroservicesSubnetCidrBlocks"
					}]
				},
				"PortRange": {
					"From": "443",
					"To": "443"
				}
			}
		},
		
		"InboundNACLEntryFromMuleRuntimeAZ2": {
			"Type": "AWS::EC2::NetworkAclEntry",
			"Metadata": {
				"Comment": "Network ACL Entry for inbound traffic For MuleRuntime Subnet"
			},
			"Properties": {
				"NetworkAclId": {
					"Ref": "LoggingNACL"
				},
				"RuleNumber": "105",
				"Protocol": "6",
				"RuleAction": "allow",
				"Egress": "false",
				"CidrBlock": {
					"Fn::Select" : [ "1", {
						"Ref" : "MicroservicesSubnetCidrBlocks"
					}]
				},
				"PortRange": {
					"From": "443",
					"To": "443"
				}
			}
		},
		"InboundNACLEntryFromZuulAZ1": {
			"Type": "AWS::EC2::NetworkAclEntry",
			"Metadata": {
				"Comment": "Network ACL Entry for inbound traffic For Zuul Subnet"
			},
			"Properties": {
				"NetworkAclId": {
					"Ref": "LoggingNACL"
				},
				"RuleNumber": "110",
				"Protocol": "6",
				"RuleAction": "allow",
				"Egress": "false",
				"CidrBlock": {
					"Fn::Select" : [ "0", {
						"Ref" : "ZuulSubnetCidrBlocks"
					}]
				},
				"PortRange": {
					"From": "443",
					"To": "443"
				}
			}
		},
		"InboundNACLEntryFromZuulAZ2": {
			"Type": "AWS::EC2::NetworkAclEntry",
			"Metadata": {
				"Comment": "Network ACL Entry for inbound traffic For Zuul Subnet"
			},
			"Properties": {
				"NetworkAclId": {
					"Ref": "LoggingNACL"
				},
				"RuleNumber": "115",
				"Protocol": "6",
				"RuleAction": "allow",
				"Egress": "false",
				"CidrBlock": {
					"Fn::Select" : [ "1", {
						"Ref" : "ZuulSubnetCidrBlocks"
					}]
				},
				"PortRange": {
					"From": "443",
					"To": "443"
				}
			}
		},
		"InboundNACLEntryFromEurekaAZ1": {
			"Type": "AWS::EC2::NetworkAclEntry",
			"Metadata": {
				"Comment": "Network ACL Entry for inbound traffic For Eureka Subnet"
			},
			"Properties": {
				"NetworkAclId": {
					"Ref": "LoggingNACL"
				},
				"RuleNumber": "120",
				"Protocol": "6",
				"RuleAction": "allow",
				"Egress": "false",
				"CidrBlock": {
					"Fn::Select" : [ "0", {
						"Ref" : "EurekaSubnetCidrBlocks"
					}]
				},
				"PortRange": {
					"From": "443",
					"To": "443"
				}
			}
		},
		"InboundNACLEntryFromEurekaAZ2": {
			"Type": "AWS::EC2::NetworkAclEntry",
			"Metadata": {
				"Comment": "Network ACL Entry for inbound traffic For Eureka Subnet"
			},
			"Properties": {
				"NetworkAclId": {
					"Ref": "LoggingNACL"
				},
				"RuleNumber": "125",
				"Protocol": "6",
				"RuleAction": "allow",
				"Egress": "false",
				"CidrBlock": {
					"Fn::Select" : [ "1", {
						"Ref" : "EurekaSubnetCidrBlocks"
					}]
				},
				"PortRange": {
					"From": "443",
					"To": "443"
				}
			}
		},
		"InboundNACLEntryFromMicroServicesAZ1": {
			"Type": "AWS::EC2::NetworkAclEntry",
			"Metadata": {
				"Comment": "Network ACL Entry for inbound traffic For Microservices Subnet"
			},
			"Properties": {
				"NetworkAclId": {
					"Ref": "LoggingNACL"
				},
				"RuleNumber": "130",
				"Protocol": "6",
				"RuleAction": "allow",
				"Egress": "false",
				"CidrBlock": {
					"Fn::Select" : [ "0", {
						"Ref" : "MicroservicesSubnetCidrBlocks"
					}]
				},
				"PortRange": {
					"From": "443",
					"To": "443"
				}
			}
		},
		"InboundNACLEntryFromMicroServicesAZ2": {
			"Type": "AWS::EC2::NetworkAclEntry",
			"Metadata": {
				"Comment": "Network ACL Entry for inbound traffic For Microservices Subnet"
			},
			"Properties": {
				"NetworkAclId": {
					"Ref": "LoggingNACL"
				},
				"RuleNumber": "135",
				"Protocol": "6",
				"RuleAction": "allow",
				"Egress": "false",
				"CidrBlock": {
					"Fn::Select" : [ "1", {
						"Ref" : "MicroservicesSubnetCidrBlocks"
					}]
				},
				"PortRange": {
					"From": "443",
					"To": "443"
				}
			}
		},
		"InboundNACLEntryFromUISubnetAZ1": {
			"Type": "AWS::EC2::NetworkAclEntry",
			"Metadata": {
				"Comment": "Network ACL Entry for inbound traffic For UI Subnet"
			},
			"Properties": {
				"NetworkAclId": {
					"Ref": "LoggingNACL"
				},
				"RuleNumber": "140",
				"Protocol": "6",
				"RuleAction": "allow",
				"Egress": "false",
				"CidrBlock": {
					"Fn::Select" : [ "0", {
						"Ref" : "UISubnetCidrBlocks"
					}]
				},
				"PortRange": {
					"From": "443",
					"To": "443"
				}
			}
		},
		"InboundNACLEntryFromUISubnetAZ2": {
			"Type": "AWS::EC2::NetworkAclEntry",
			"Metadata": {
				"Comment": "Network ACL Entry for inbound traffic For UI Subnet"
			},
			"Properties": {
				"NetworkAclId": {
					"Ref": "LoggingNACL"
				},
				"RuleNumber": "145",
				"Protocol": "6",
				"RuleAction": "allow",
				"Egress": "false",
				"CidrBlock": {
					"Fn::Select" : [ "1", {
						"Ref" : "UISubnetCidrBlocks"
					}]
				},
				"PortRange": {
					"From": "443",
					"To": "443"
				}
			}
		},
		"InboundNACLEntryFromNetscalarNSIPAZ1": {
			"Type": "AWS::EC2::NetworkAclEntry",
			"Metadata": {
				"Comment": "Network ACL Entry for inbound traffic For Netscaler Subnet"
			},
			"Properties": {
				"NetworkAclId": {
					"Ref": "LoggingNACL"
				},
				"RuleNumber": "150",
				"Protocol": "6",
				"RuleAction": "allow",
				"Egress": "false",
				"CidrBlock": {
					"Fn::Select" : [ "0", {
						"Ref" : "NetScalerNSIPSubnetCidrBlocks"
					}]
				},
				"PortRange": {
					"From": "514",
					"To": "514"
				}
			}
		},
		"InboundNACLEntryFromNetscalarNSIPAZ2": {
			"Type": "AWS::EC2::NetworkAclEntry",
			"Metadata": {
				"Comment": "Network ACL Entry for inbound traffic For Netscaler Subnet"
			},
			"Properties": {
				"NetworkAclId": {
					"Ref": "LoggingNACL"
				},
				"RuleNumber": "155",
				"Protocol": "6",
				"RuleAction": "allow",
				"Egress": "false",
				"CidrBlock": {
					"Fn::Select" : [ "1", {
						"Ref" : "NetScalerNSIPSubnetCidrBlocks"
					}]
				},
				"PortRange": {
					"From": "514",
					"To": "514"
				}
			}
		},
		"InboundNACLEntryFromDBsubnetAZ1": {
			"Type": "AWS::EC2::NetworkAclEntry",
			"Metadata": {
				"Comment": "Network ACL Entry for inbound traffic For Mongo Subnet"
			},
			"Properties": {
				"NetworkAclId": {
					"Ref": "LoggingNACL"
				},
				"RuleNumber": "160",
				"Protocol": "6",
				"RuleAction": "allow",
				"Egress": "false",
				"CidrBlock": {
					"Fn::Select" : [ "0", {
						"Ref" : "DatabaseSubnetCidrBlocks"
					}]
				},
				"PortRange": {
					"From": "9997",
					"To": "9997"
				}
			}
		},
		"InboundNACLEntryFromDBsubnetAZ2": {
			"Type": "AWS::EC2::NetworkAclEntry",
			"Metadata": {
				"Comment": "Network ACL Entry for inbound traffic For Mongo Subnet"
			},
			"Properties": {
				"NetworkAclId": {
					"Ref": "LoggingNACL"
				},
				"RuleNumber": "165",
				"Protocol": "6",
				"RuleAction": "allow",
				"Egress": "false",
				"CidrBlock": {
					"Fn::Select" : [ "1", {
						"Ref" : "DatabaseSubnetCidrBlocks"
					}]
				},
				"PortRange": {
					"From": "9997",
					"To": "9997"
				}
			}
		},
		"InboundNACLEntryFromLDAPAZ1": {
			"Type": "AWS::EC2::NetworkAclEntry",
			"Metadata": {
				"Comment": "Network ACL Entry for inbound traffic For Ldap Subnet"
			},
			"Properties": {
				"NetworkAclId": {
					"Ref": "LoggingNACL"
				},
				"RuleNumber": "170",
				"Protocol": "6",
				"RuleAction": "allow",
				"Egress": "false",
				"CidrBlock": {
					"Fn::Select" : [ "0", {
						"Ref" : "LDAPSubnetCidrBlocks"
					}]
				},
				"PortRange": {
					"From": "9997",
					"To": "9997"
				}
			}
		},
		"InboundNACLEntryFromLDAPAZ2": {
			"Type": "AWS::EC2::NetworkAclEntry",
			"Metadata": {
				"Comment": "Network ACL Entry for inbound traffic For Ldap Subnet"
			},
			"Properties": {
				"NetworkAclId": {
					"Ref": "LoggingNACL"
				},
				"RuleNumber": "175",
				"Protocol": "6",
				"RuleAction": "allow",
				"Egress": "false",
				"CidrBlock": {
					"Fn::Select" : [ "1", {
						"Ref" : "LDAPSubnetCidrBlocks"
					}]
				},
				"PortRange": {
					"From": "9997",
					"To": "9997"
				}
			}
		},
		"InboundNACLEntryFromFederationAZ1": {
			"Type": "AWS::EC2::NetworkAclEntry",
			"Metadata": {
				"Comment": "Network ACL Entry for inbound traffic For PF Subnet"
			},
			"Properties": {
				"NetworkAclId": {
					"Ref": "LoggingNACL"
				},
				"RuleNumber": "180",
				"Protocol": "6",
				"RuleAction": "allow",
				"Egress": "false",
				"CidrBlock": {
					"Fn::Select" : [ "0", {
						"Ref" : "FederationSubnetCidrBlocks"
					}]
				},
				"PortRange": {
					"From": "9997",
					"To": "9997"
				}
			}
		},
		"InboundNACLEntryFromFederationAZ2": {
			"Type": "AWS::EC2::NetworkAclEntry",
			"Metadata": {
				"Comment": "Network ACL Entry for inbound traffic For PF Subnet"
			},
			"Properties": {
				"NetworkAclId": {
					"Ref": "LoggingNACL"
				},
				"RuleNumber": "185",
				"Protocol": "6",
				"RuleAction": "allow",
				"Egress": "false",
				"CidrBlock": {
					"Fn::Select" : [ "1", {
						"Ref" : "FederationSubnetCidrBlocks"
					}]
				},
				"PortRange": {
					"From": "9997",
					"To": "9997"
				}
			}
		},
		"SSHAllowInboundNACLEntryFromBastionAZ1ToLoggingSubnet": {
			"Type": "AWS::EC2::NetworkAclEntry",
			"Metadata": {
				"Comment": "Network ACL Entry inbound SSH traffic From Bastion AZ1 To Logging Subnet"
			},
			"Properties": {
				"NetworkAclId": {
					"Ref": "LoggingNACL"
				},
				"RuleNumber": "190",
				"Protocol": "6",
				"RuleAction": "allow",
				"Egress": "false",
				"CidrBlock": {
					"Fn::Select" : [ "0", {
						"Ref" : "BastionSubnetCidrBlocks"
					}]
				},
				"PortRange": {
					"From": "22",
					"To": "22"
				}
			}
		},
		"SSHAllowInboundNACLEntryFromBastionAZ2ToLoggingSubnet": {
			"Type": "AWS::EC2::NetworkAclEntry",
			"Metadata": {
				"Comment": "Network ACL Entry inbound SSH traffic From Bastion AZ2 To Logging Subnet"
			},
			"Properties": {
				"NetworkAclId": {
					"Ref": "LoggingNACL"
				},
				"RuleNumber": "195",
				"Protocol": "6",
				"RuleAction": "allow",
				"Egress": "false",
				"CidrBlock": {
					"Fn::Select" : [ "1", {
						"Ref" : "BastionSubnetCidrBlocks"
					}]
				},
				"PortRange": {
					"From": "22",
					"To": "22"
				}
			}
		},
		"EphimeralAllowInboundNACLEntryWithinSubnet": {
			"Type": "AWS::EC2::NetworkAclEntry",
			"Metadata": {
				"Comment": "Network ACL Entry inbound traffic From Consent Subnet"
			},
			"Properties": {
				"NetworkAclId": {
					"Ref": "LoggingNACL"
				},
				"RuleNumber": "200",
				"Protocol": "6",
				"RuleAction": "allow",
				"Egress": "false",
				"CidrBlock": {
					"Ref": "VPCCidrBlock"
				},
				"PortRange": {
					"From": "1024",
					"To": "65535"
				}
			}
		},
		"AllAllowInboundNACLEntryFromLoggingAZ1ToLoggingSubnet": {
			"Type": "AWS::EC2::NetworkAclEntry",
			"Metadata": {
				"Comment": "Network ACL Entry inbound SSH traffic From Logging AZ1 To Logging Subnet"
			},
			"Properties": {
				"NetworkAclId": {
					"Ref": "LoggingNACL"
				},
				"RuleNumber": "205",
				"Protocol": "6",
				"RuleAction": "allow",
				"Egress": "false",
				"CidrBlock": {
					"Fn::Select" : [ "0", {
						"Ref" : "LoggingSubnetCidrBlocks"
					}]
				},
				"PortRange": {
					"From": "0",
					"To": "65535"
				}
			}
		},
		"AllAllowInboundNACLEntryFromLoggingAZ2ToLoggingSubnet": {
			"Type": "AWS::EC2::NetworkAclEntry",
			"Metadata": {
				"Comment": "Network ACL Entry inbound SSH traffic From Logging AZ2 To Logging Subnet"
			},
			"Properties": {
				"NetworkAclId": {
					"Ref": "LoggingNACL"
				},
				"RuleNumber": "210",
				"Protocol": "6",
				"RuleAction": "allow",
				"Egress": "false",
				"CidrBlock": {
					"Fn::Select" : [ "1", {
						"Ref" : "LoggingSubnetCidrBlocks"
					}]
				},
				"PortRange": {
					"From": "0",
					"To": "65535"
				}
			}
		},
		"VPCAllAllowOutboundNACLEntryFromLoggingSubnet": {
			"Type": "AWS::EC2::NetworkAclEntry",
			"Metadata": {
				"Comment": "Network ACL Entry inbound VPC traffic From Zuul Subnet"
			},
			"Properties": {
				"NetworkAclId": {
					"Ref": "LoggingNACL"
				},
				"RuleNumber": "100",
				"Protocol": "6",
				"RuleAction": "allow",
				"Egress": "true",
				"CidrBlock": {
					"Ref": "VPCCidrBlock"
				},
				"PortRange": {
					"From": "0",
					"To": "65535"
				}
			}
		},
		"SplunkIndexerCLB": {
            "Type": "AWS::ElasticLoadBalancing::LoadBalancer",
            "Properties": {
                "Scheme": "internal",
                "Subnets": [{
					"Ref": "LoggingSubnetAZ1"
				},
                {
                    "Ref": "LoggingSubnetAZ2"
                }],
				"AccessLoggingPolicy" :{
					"EmitInterval" : "5",
					"Enabled" : "true",
					"S3BucketName" : {
						"Fn::Join": ["", [{
							"Ref": "ClientName"
						}, "-", {
							"Ref": "SplunkCLBAccessLogsBucket"
						}, "-", {
							"Ref": "Environment"
						}]]
					},
					"S3BucketPrefix" : "logs"
				},
                "HealthCheck": {
                    "HealthyThreshold": "3",
                    "Interval": "10",
                    "Target": "TCP:514",
                    "Timeout": "5",
                    "UnhealthyThreshold": "3"
                },
                "ConnectionDrainingPolicy": {
                    "Enabled": "false",
                    "Timeout": "300"
                },
                "ConnectionSettings": {
                    "IdleTimeout": "120"
                },
                "CrossZone": "true",
                "SecurityGroups": [{
					"Ref": "SplunkClassicLoadBalancerSecurityGroup"
				}],
                "Listeners": [{
					"InstancePort": "8088",
					"LoadBalancerPort": "443",
					"Protocol": "HTTPS",
					"InstanceProtocol": "HTTPS",
					"SSLCertificateId": {
						"Ref": "ArnOfSplunkClbSslCertificate"
					},
					"PolicyNames": [
						"ELBSecurityPolicy-2016-08"
					]
				},
				{
					"InstancePort": "514",
					"LoadBalancerPort": "514",
					"Protocol": "TCP",
					"InstanceProtocol": "TCP"
				}],
                "Tags": [{
					"Key": "Name",
					"Value": "SplunkIndexerCLB"
				}]
            }
        },
		"SplunkIndexerLoadBalancerDns": {
			"Type": "AWS::Route53::RecordSetGroup",
			"Properties": {
				"HostedZoneId": {
					"Ref": "PrivateHostedZoneId"
				},
				"Comment": "DNS entry to point to splunk indexer CLB",
				"RecordSets": [{
					"Name": {
						"Fn::Join": [".", ["splunkindexer", {
							"Ref": "PrivateDomainName"
						}]]
					},
					"Type": "A",
					"AliasTarget": {
						"DNSName": {
							"Fn::GetAtt": ["SplunkIndexerCLB", "DNSName"]
						},
						"HostedZoneId": {
							"Fn::GetAtt": ["SplunkIndexerCLB", "CanonicalHostedZoneNameID"]
						}
					}
				}]
			}
		},
        "LaunchConfigForSplunkMaster": {
			"Type": "AWS::AutoScaling::LaunchConfiguration",
			"Properties": {
				"ImageId": {
					"Fn::FindInMap": ["RegionToAmiMapForSplunk", {
						"Ref": "AWS::Region"
					}, "SplunkAmi"]
				},
				"InstanceType": "c3.2xlarge",
				"IamInstanceProfile": {
					"Ref": "InstanceProfileForSplunkInstanceRole"
				},
				"BlockDeviceMappings": [
					{"DeviceName": "/dev/xvda",
					"Ebs": {
						"DeleteOnTermination": "false",
						"VolumeSize": "20",
						"VolumeType": "gp2"
					}},
					{"DeviceName": "/dev/sdb",
					"Ebs": {
						"DeleteOnTermination": "false",
						"VolumeSize": "10",
						"VolumeType": "gp2"
					}}
				],
				"KeyName": {
					"Ref": "KeyName"
				},
				"SecurityGroups": [{
					"Ref": "SplunkSecurityGroup"
				}],
				"UserData": {
					"Fn::Base64": {
						"Fn::Join": ["\n", [
							"#!/bin/bash",
							{
								"Fn::Join": [
									"", [
										"HostedZoneId=",
										{
											"Ref": "PrivateHostedZoneId"
										},
										"\n",
										"S3_BUCKET_NAME=",
										{
											"Ref": "ClientName"
										}, "-", {
											"Ref": "CloudFormationS3Bucket"
										}, "-", {
											"Ref": "Environment"
										},
										"\n",
										"HttpProxyIporDNS=",
										{
											"Ref": "HttpProxyIporDNS"
										},
										"\n",
										"PrivateDomainName=",
										{
											"Ref": "PrivateDomainName"
										},
										"\n",
										"REGION=",
										{
											"Ref": "AWS::Region"
										},
										"\n",
										"SplunkS3Bucket=",
										{
											"Ref": "ClientName"
										}, "-", {
											"Ref": "SplunkS3Bucket"
										}, "-", {
											"Ref": "Environment"
										},
										"\n"
									]
								]
							},
							"export https_proxy=${HttpProxyIporDNS}",
							"if [[ -n ${S3_BUCKET_NAME} && -n ${HttpProxyIporDNS} &&  -n ${PrivateDomainName} && -n ${REGION} ]]; then",
							"aws s3 --no-verify-ssl cp s3://${S3_BUCKET_NAME}/user-data/common.sh /root/common.sh --region ${REGION}",
							"else",
							"echo \"please provide Variables Value for S3_BUCKET_NAME, HttpProxyIporDNS,PrivateDomainName,REGION\"",
							"fi",
							"if [[ -f \"/root/common.sh\" ]]; then",
							"source \"/root/common.sh\"",
							"else",
							"echo \"common libs does not exist\"",
							"exit 1",
							"fi",
							"if (( $?==0 )); then",
							"ProxySettings ${HttpProxyIporDNS} \"/etc/bashrc\"",
							"ProxySettingsForYum ${HttpProxyIporDNS}",
							"InstallPackage /home/ec2-user/aws_scripts/amazon-ssm-agent.rpm",
							"ProxySettingsforSSM ${HttpProxyIporDNS}",
							"StartOrStopService amazon-ssm-agent",
							"if [[ -n ${HostedZoneId} && -n ${AWS_INSTANCEIP} && -n ${PrivateDomainName} ]]; then",
							"CreateDnsARecord ${HostedZoneId} \"/home/ec2-user/change.json\" \"splunkmaster.${PrivateDomainName}\" \"${AWS_INSTANCEIP}\"",
							"fi",
							"ConfigureAwsLogAgent ${HttpProxyIporDNS}",
							"fi",
							"sudo service chronyd start",
							"EC2_AVAIL_ZONE=`curl -s http://169.254.169.254/latest/meta-data/placement/availability-zone`", "\n",
							"EC2_REGION=`curl -s http://169.254.169.254/latest/meta-data/placement/availability-zone | sed 's/.$//'`", "\n",
							"INSTANCE_ID=$(/opt/aws/bin/ec2-metadata --instance-id | cut -d' ' -f2)","\n",
							"mkdir /root/.aws",
							"echo -e \"[default]",
							"region = ${EC2_REGION}\" >> /root/.aws/config",
							"snapshotid_latest=$(aws ec2 describe-snapshots --filters Name=tag-key,Values=\"Name\" Name=tag-value,Values=\"SplunkMaster\" --query 'Snapshots[0].{SnapshotId:SnapshotId}' | awk -F\": \" '{print $2}' | sed 's/\"//g')",
							"AZ=$(curl -s http://169.254.169.254/latest/meta-data/placement/availability-zone)", "\n",
							"if [ ! -z ${snapshotid_latest} ]; then",
							"aws ec2 create-volume --availability-zone ${AZ} --snapshot-id ${snapshotid_latest} --tag-specifications 'ResourceType=volume,Tags=[{Key=InstanceId,Value='$INSTANCE_ID'}]'",
							"sleep 40",
							"volID=$(aws ec2 describe-volumes --filters Name=tag-key,Values=\"InstanceId\" Name=tag-value,Values=\"$INSTANCE_ID\" --query 'Volumes[*].{ID:VolumeId}' | awk -F\": \" '{print $2}' | sed 's/\"//g')",
							"sleep 5",
							"aws ec2 attach-volume --volume-id ${volID} --instance-id ${INSTANCE_ID} --device /dev/sdc",
							"sleep 15",
							"mkdir -p /opt/splunk",
							"echo \"/dev/sdc /opt/splunk ext4 defaults,nofail\" >> /etc/fstab",
							"mount -a",
							"sed -i \"/^host =/s/=.*/= $(hostname)/\"  /opt/splunk/etc/system/local/inputs.conf",
							"sed -i \"/^serverName =/s/=.*/= $(hostname)/\"  /opt/splunk/etc/system/local/server.conf",
							"else",
							"aws ec2 create-volume --availability-zone ${AZ} --size 50 --volume-type gp2 --tag-specifications 'ResourceType=volume,Tags=[{Key=InstanceId,Value='$INSTANCE_ID'}]'",
							"sleep 40",
							"volID=$(aws ec2 describe-volumes --filters Name=tag-key,Values=\"InstanceId\" Name=tag-value,Values=\"$INSTANCE_ID\" --query 'Volumes[*].{ID:VolumeId}' | awk -F\": \" '{print $2}' | sed 's/\"//g')",
							"sleep 5",
							"aws ec2 attach-volume --volume-id ${volID} --instance-id ${INSTANCE_ID} --device /dev/sdc",
							"sleep 10",
							"if [[ ! -d /opt/splunk ]]; then",
							"mkfs -t ext4 /dev/sdc >> /home/ec2-user/filelog.txt",
							"sleep 20",
							"mkdir -p /opt/splunk",
							"sleep 10",
							"echo \"/dev/sdc /opt/splunk ext4 defaults,nofail\" >> /etc/fstab",
							"mount -a",
							"fi",
							"if [[ ! -d /opt/splunk/bin ]]; then",
							"cd /home/ec2-user",
							"sudo rpm -i splunk-6.5.3-36937ad027d4-linux-2.6-x86_64.rpm",
							"cd /opt/splunk/bin",
							"mkdir -p  /opt/splunk/etc/auth/splunkweb",
							"sudo ./splunk start --accept-license --answer-yes --no-prompt",
							"./splunk edit user admin -password admin -role admin -auth admin:changeme",
							"fi", "\n",
							"AZ=$(curl -s http://169.254.169.254/latest/meta-data/placement/availability-zone)",
							"if [ $AZ == 'us-east-1a' ]; then ",
							"SITE='site1' ",
							"elif [ $AZ == 'us-east-1b' ];then",
							"SITE='site2'",
							"elif [ $AZ == 'us-east-1c' ];then",
							"SITE='site3'",
							"fi", "\n",
							"touch /root/site.txt",
							"echo \"Current Site is $SITE\" >> /tmp/site.txt",
							"cp -f /home/ec2-user/aws_scripts/splunkmaster.webservices.com.chained.cert.pem /opt/splunk/etc/auth/splunkweb/",
							"cp -f /home/ec2-user/aws_scripts/splunkmaster.webservices.com.key.pem /opt/splunk/etc/auth/splunkweb/",
							"sed -i \"4isite = $SITE\" /opt/splunk/etc/system/local/server.conf",
							"sed -i '8isslVersions = tls1.2' /opt/splunk/etc/system/local/server.conf",
							"sed -i '9iserverCert = /opt/splunk/etc/auth/mycerts/splunkmaster.webservices.com.chained.keycrt.pem' /opt/splunk/etc/system/local/server.conf",
							"sed -i '10isslRootCAPath = /opt/splunk/etc/auth/mycerts/cacert.pem' /opt/splunk/etc/system/local/server.conf",
							"echo \"[SSL]",
							"sslVersions = tls1.2",
							"cipherSuite = ALL:!DES:!3DES:!DES-CBC3-SHA:!RC4-MD5:!RC4-SHA\" >> /opt/splunk/etc/system/local/inputs.conf",
							"echo \"[settings]",
							"httpport = 8000",
							"enableSplunkWebSSL = true",
							"privKeyPath = /opt/splunk/etc/auth/splunkweb/splunkmaster.webservices.com.key.pem",
							"serverCert = /opt/splunk/etc/auth/splunkweb/splunkmaster.webservices.com.chained.cert.pem",
							"sslVersions = tls1.2\" >> /opt/splunk/etc/system/local/web.conf",
							"echo \"[clustering]",
							"cluster_label = IndexCluster",
							"mode = master",
							"multisite = true",
							"available_sites = site1,site2",
							"site_replication_factor = origin:1,site1:1,site2:1,total:2",
							"site_search_factor = origin:1,total:2",
							"replication_factor = 2",
							"pass4SymmKey = boi@cg",
							"[diskUsage]",
							"[diskUsage]",
							"minFreeSpace = 500",
							"[indexer_discovery]",
							"pass4SymmKey = boi@123",
							"indexerWeightByDiskCapacity = true\" >> /opt/splunk/etc/system/local/server.conf",
							"echo \"[indexAndForward]",
							"index = false",
							"[indexer_discovery:master1]",
							"master_uri = https://splunkmaster.webservices.com:8089",
							"pass4SymmKey = boi@123", "\n",
							"[tcpout:my_peers_nodes]",
							"indexerDiscovery = master1",
							"autoLB = true",
							"clientCert = /opt/splunk/etc/auth/mycerts/splunkmaster.webservices.com.chained.keycrt.pem",
							"sslRootCAPath = /opt/splunk/etc/auth/mycerts/cacert.pem",
							"sslCommonNameToCheck = splunkindexer.webservices.com",
							"sslVerifyServerCert = true",
							"useACK=true",
							"[tcpout]",
							"defaultGroup = my_peers_nodes\" >> /opt/splunk/etc/system/local/outputs.conf",
							"echo \"[developerlogs]",
							"repFactor = auto",
							"homePath = /opt/splunk/var/lib/splunk/developerlogs/db",
							"coldPath = /opt/splunk/var/lib/splunk/developerlogs/colddb",
							"thawedPath = /opt/splunk/var/lib/splunk/developerlogs/thaweddb",
							"frozenTimePeriodInSecs = 31536000",
							"[mulelogs]",
							"repFactor = auto",
							"homePath = /opt/splunk/var/lib/splunk/mulelogs/db",
							"coldPath = /opt/splunk/var/lib/splunk/mulelogs/colddb",
							"thawedPath = /opt/splunk/var/lib/splunk/mulelogs/thaweddb",
							"frozenTimePeriodInSecs = 31536000",
							"[vpcflowlog]",
							"repFactor = auto",
							"homePath = /opt/splunk/var/lib/splunk/vpcflowlog/db",
							"coldPath = /opt/splunk/var/lib/splunk/vpcflowlog/colddb",
							"thawedPath = /opt/splunk/var/lib/splunk/vpcflowlog/thaweddb",
							"frozenTimePeriodInSecs = 31536000",
							"[elb]",
							"repFactor = auto",
							"homePath = /opt/splunk/var/lib/splunk/elb/db",
							"coldPath = /opt/splunk/var/lib/splunk/elb/colddb",
							"thawedPath = /opt/splunk/var/lib/splunk/elb/thaweddb",
							"frozenTimePeriodInSecs = 31536000",
							"[ldaplogs]",
							"repFactor = auto",
							"homePath = /opt/splunk/var/lib/splunk/ldaplogs/db",
							"coldPath = /opt/splunk/var/lib/splunk/ldaplogs/colddb",
							"thawedPath = /opt/splunk/var/lib/splunk/ldaplogs/thaweddb",
							"frozenTimePeriodInSecs = 31536000",
							"[linuxcommandlogs]",
							"repFactor = auto",
							"homePath = /opt/splunk/var/lib/splunk/linuxcommandlogs/db",
							"coldPath = /opt/splunk/var/lib/splunk/linuxcommandlogs/colddb",
							"thawedPath = /opt/splunk/var/lib/splunk/linuxcommandlogs/thaweddb",
							"frozenTimePeriodInSecs = 31536000",
							"[pingfederateauditlogs]",
							"repFactor = auto",
							"homePath = /opt/splunk/var/lib/splunk/pingfederateauditlogs/db",
							"coldPath = /opt/splunk/var/lib/splunk/pingfederateauditlogs/colddb",
							"thawedPath = /opt/splunk/var/lib/splunk/pingfederateauditlogs/thaweddb",
							"frozenTimePeriodInSecs = 31536000",
							"[pingfederateserverlogs]",
							"repFactor = auto",
							"homePath = /opt/splunk/var/lib/splunk/pingfederateserverlogs/db",
							"coldPath = /opt/splunk/var/lib/splunk/pingfederateserverlogs/colddb",
							"thawedPath = /opt/splunk/var/lib/splunk/pingfederateserverlogs/thaweddb",
							"frozenTimePeriodInSecs = 31536000",
							"[netscaler]",
							"repFactor = auto",
							"homePath = /opt/splunk/var/lib/splunk/netscaler/db",
							"coldPath = /opt/splunk/var/lib/splunk/netscaler/colddb",
							"thawedPath = /opt/splunk/var/lib/splunk/netscaler/thaweddb",
							"frozenTimePeriodInSecs = 31536000",
							"[cloudtrail]",
							"repFactor = auto",
							"homePath = /opt/splunk/var/lib/splunk/cloudtrail/db",
							"coldPath = /opt/splunk/var/lib/splunk/cloudtrail/colddb",
							"thawedPath = /opt/splunk/var/lib/splunk/cloudtrail/thaweddb",
							"frozenTimePeriodInSecs = 31536000\" >> /opt/splunk/etc/master-apps/_cluster/local/indexes.conf",
							"mkdir -p /opt/splunk/etc/auth/mycerts",
							"cp -f /home/ec2-user/aws_scripts/cacert.pem /opt/splunk/etc/auth/mycerts/",
							"cp -f /home/ec2-user/aws_scripts/splunkmaster.webservices.com.chained.keycrt.pem /opt/splunk/etc/auth/mycerts/",
							"tar -zxvf /home/ec2-user/aws_scripts/splunk-add-on-for-amazon-web-services_440.tgz -C /opt/splunk/etc/apps/",
							"tar -zxvf /home/ec2-user/aws_scripts/splunk-app-for-aws_510.tgz -C /opt/splunk/etc/apps/",
							"tar -zxvf /home/ec2-user/aws_scripts/splunk-add-on-for-citrix-netscaler_620.tgz -C /opt/splunk/etc/master-apps/",
							"unzip /home/ec2-user/aws_scripts/backup.zip -d /opt/splunk/etc/apps/",
							"sleep 30",
							"sed -i 's;splunk-databackup;'\"${SplunkS3Bucket}\"';g' /opt/splunk/etc/apps/backup/bin/scripts/s3backup.sh", "\n",
							"if [ ! -f /opt/splunk/etc/system/local/alert_actions.conf ]; then",
							"echo \"[email]",
							{
								"Fn::Join": [
									"", [
										"from = ",
										{
											"Ref": "SplunkFromEmailAddress"
										},
										"\n"
									]
								]
							},
							"mailserver = proxy.webservices.com:25",
							"pdf.header_left = none",
							"pdf.header_right = none",
							"sslVersions = tls",
							"use_tls = 1\" >> /opt/splunk/etc/system/local/alert_actions.conf",
							"fi", "\n",
							"mkdir -p /opt/splunk/etc/apps/splunk_httpinput/local",
							"echo \"[http://eventhc]",
							"disabled = 0",
							"port = 8088",
							"index = developerlogs",
							"indexes = developerlogs,linuxcommandlogs",
							"token = 2BD7C534-BD32-4CD9-B0B0-7FE8FDDB11E9",
							"[http]",
							"disabled =0",
							"[http://Mulelog]",
							"disabled = 0",
							"index = mulelogs",
							"indexes = mulelogs",
							"sourcetype = Mulelogs",
							"token = DD163D77-FB65-42E6-B702-A7938395D337\" >> /opt/splunk/etc/apps/splunk_httpinput/local/inputs.conf", "\n",
							"cp -R /opt/splunk/etc/apps/splunk_httpinput/ /opt/splunk/etc/deployment-apps/splunk_httpinput/",
							"cp -R /opt/splunk/etc/apps/backup /opt/splunk/etc/deployment-apps/",
							"mkdir -p /opt/splunk/etc/master-apps/Splunk_TA_citrix-netscaler/local/", "\n",
							"echo \"[tcp-ssl://514]",
							"sourcetype = netscaler-syslog",
							"index = netscaler",
							"disabled = 0\" >> /opt/splunk/etc/master-apps/Splunk_TA_citrix-netscaler/local/inputs.conf",
							"mkdir -p /opt/splunk/etc/apps/search/local",
							"echo \"[Mulelogs]",
							"DATETIME_CONFIG =",
							"INDEXED_EXTRACTIONS = JSON",
							"KV_MODE = JSON",
							"LINE_BREAKER = ([//]+)",
							"NO_BINARY_CHECK = true",
							"TRUNCATE = 0",
							"category = Custom",
							"description = Mule Agent event info",
							"pulldown_type = 1\" >> /opt/splunk/etc/apps/search/local/props.conf",
							"cd /opt/splunk/bin",
							"sudo ./splunk restart",
							"fi", "\n",
							"sleep 5", "\n",
							"cd /opt/splunk/bin",
							"sudo ./splunk restart",
							"sudo ./splunk validate cluster-bundle"
						]]
					}
				}
			}
		},
		"AutoScalingGroupForSplunkMaster": {
			"Type": "AWS::AutoScaling::AutoScalingGroup",
			"Metadata": {
				"Comment": "Auto scaling group for Splunk Master"
			},
			"Properties": {
				"DesiredCapacity": "1",
				"HealthCheckType": "EC2",
				"LaunchConfigurationName": {
					"Ref": "LaunchConfigForSplunkMaster"
				},
				"TargetGroupARNs": [{
					"Ref": "SplunkTargetGroup"
				}],
				"MaxSize": "1",
				"MetricsCollection": [{
					"Granularity": "1Minute",
					"Metrics": [
						"GroupDesiredCapacity"
					]
				}],
				"MinSize": "1",
				"NotificationConfigurations" : [{
					"TopicARN": {
						"Ref" : "BOIScaleUpMonitors"
					},
					"NotificationTypes" : [
						"autoscaling:EC2_INSTANCE_LAUNCH",
						"autoscaling:EC2_INSTANCE_LAUNCH_ERROR"
					]
				},
				{
					"TopicARN": {
						"Ref" : "BOIScaleDownMonitors"
					},
					"NotificationTypes" : [
						"autoscaling:EC2_INSTANCE_TERMINATE",
						"autoscaling:EC2_INSTANCE_TERMINATE_ERROR"
					]
				}],
				"Tags": [{
					"Key": "Name",
					"Value": {
						"Fn::Join": ["", ["SplunkMaster_", {
							"Ref": "ClientName"
						},
						{
							"Ref": "Environment"
						}
					]]
					},
					"PropagateAtLaunch": "true"
				}],
				"VPCZoneIdentifier": [{
					"Ref": "LoggingSubnetAZ1"
				},
                {
                    "Ref": "LoggingSubnetAZ2"
                }]
			},
			"UpdatePolicy": {
				"AutoScalingScheduledAction": {
					"IgnoreUnmodifiedGroupSizeProperties": "true"
				},
				"AutoScalingRollingUpdate": {
					"MaxBatchSize": "1",
					"MinInstancesInService": "0",
					"PauseTime": "PT10M",
					"WaitOnResourceSignals": "false"
				}
			}
        },
        "LaunchConfigForSplunkIndexer": {
			"Type": "AWS::AutoScaling::LaunchConfiguration",
			"Properties": {
				"ImageId": {
					"Fn::FindInMap": ["RegionToAmiMapForSplunk", {
						"Ref": "AWS::Region"
					}, "SplunkAmi"]
				},
				"InstanceType": "c4.4xlarge",
				"BlockDeviceMappings": [
					{"DeviceName": "/dev/xvda",
					"Ebs": {
						"DeleteOnTermination": "false",
						"VolumeSize": "20",
						"VolumeType": "gp2"
					}},
					{"DeviceName": "/dev/sdb",
					"Ebs": {
						"DeleteOnTermination": "false",
						"VolumeSize": "10",
						"VolumeType": "gp2"
					}},
					{"DeviceName": "/dev/sdc",
					"Ebs": {
						"DeleteOnTermination": "false",

						"VolumeSize": "50",
						"VolumeType": "gp2"
					}}
				],
				"IamInstanceProfile": {
					"Ref": "InstanceProfileForSplunkInstanceRole"
				},
				"KeyName": {
					"Ref": "KeyName"
				},
				"SecurityGroups": [{
					"Ref": "SplunkSecurityGroup"
				}],
				"UserData": {
					"Fn::Base64": {
						"Fn::Join": ["\n", [
						"#!/bin/bash",
						{
								"Fn::Join": [
									"", [
										"S3_BUCKET_NAME=",
										{
											"Ref": "ClientName"
										}, "-", {
											"Ref": "CloudFormationS3Bucket"
										}, "-", {
											"Ref": "Environment"
										},
										"\n",
										"HttpProxyIporDNS=",
										{
											"Ref": "HttpProxyIporDNS"
										},
										"\n",
										"REGION=",
										{
											"Ref": "AWS::Region"
										},
										"\n",
										"SplunkS3Bucket=",
										{
											"Ref": "ClientName"
										}, "-", {
											"Ref": "SplunkS3Bucket"
										}, "-", {
											"Ref": "Environment"
										},
										"\n"
									]
								]
							},
							"export https_proxy=${HttpProxyIporDNS}",
							"EC2_AVAIL_ZONE=$(curl -s http://169.254.169.254/latest/meta-data/placement/availability-zone)",
							"EC2_REGION=$(curl -s http://169.254.169.254/latest/meta-data/placement/availability-zone | sed 's/.$//')",
							"INSTANCE_ID=$(/opt/aws/bin/ec2-metadata --instance-id | cut -d' ' -f2)",
							"mkdir /root/.aws",
							"echo -e \"[default]",
							"region = ${EC2_REGION}\" >> /root/.aws/config",
							"Instance_Name=$(aws ec2 describe-instances --instance-id $INSTANCE_ID --query 'Reservations[*].Instances[*].[Tags[?Key==`Name`].Value]' | sed 's/\\[\\]//'g | grep 'SplunkIndexer' | sed 's/\"//g' | sed -e 's/^[ \t]*//')","\n",
							"tag_names=$(aws ec2 describe-instances --filters Name=tag-key,Values=\"Name\" Name=tag-value,Values=\"${Instance_Name}\" Name=instance-state-name,Values=\"running\" --query 'Reservations[*].Instances[*].[InstanceId]' | sed 's/\\[\\]//'g)",
							"tag_count=$(echo $tag_names | awk -F\"i-\" '{print NF-1}')",
							"if [ $tag_count -eq '2' ]; then",
							"Tag_instance_check=$(aws ec2 describe-instances --filters Name=tag-key,Values='GUID' Name=instance-state-name,Values=\"running\" Name=tag-value,Values='GUID1' --query 'Reservations[*].Instances[*].[Tags[?Key==`GUID`].Value]' | sed 's/\\[\\]//'g | grep 'GUID1' | sed 's/\"//g' | sed -e 's/^[ ]*//')",
							"fi",
							"if [ \"$tag_count\" -eq '1' ]; then",
							"aws ec2 create-tags --resources $INSTANCE_ID --tags Key=GUID,Value=GUID1",
							"elif [ $tag_count -eq '2' ]; then",
							"if [ ! -z \"${Tag_instance_check}\" -a $Tag_instance_check == 'GUID1' ]; then",
							"aws ec2 create-tags --resources $INSTANCE_ID --tags Key=GUID,Value=\"GUID2\" ",
							"else",
							"aws ec2 create-tags --resources $INSTANCE_ID --tags Key=GUID,Value=\"GUID1\"",
							"fi",
							"if [[ -n ${S3_BUCKET_NAME} && -n ${HttpProxyIporDNS} &&  -n ${REGION} ]]; then",
							"aws s3 --no-verify-ssl cp s3://${S3_BUCKET_NAME}/user-data/common.sh /root/common.sh --region ${REGION}",
							"else",
							"echo \"please provide Variables Value for S3_BUCKET_NAME, HttpProxyIporDNS,PrivateDomainName,REGION\"",
							"fi",
							"if [[ -f \"/root/common.sh\" ]]; then",
							"source \"/root/common.sh\"",
							"else",
							"echo \"common libs does not exist\"",
							"exit 1",
							"fi",
							"if (( $?==0 )); then",
							"ProxySettings ${HttpProxyIporDNS} \"/etc/bashrc\"",
							"ProxySettingsForYum ${HttpProxyIporDNS}",
							"InstallPackage /home/ec2-user/aws_scripts/amazon-ssm-agent.rpm",
							"ProxySettingsforSSM ${HttpProxyIporDNS}",
							"StartOrStopService amazon-ssm-agent",
							"ConfigureAwsLogAgent ${HttpProxyIporDNS}",
							"fi",
							"sudo service chronyd start",
						"touch /tmp/log.txt", "\n",
						"if [[ ! -d /opt/splunk ]]; then",
						"mkfs -t ext4 /dev/sdc >> /home/ec2-user/filelog.txt",
						"sleep 30",
						"mkdir -p /opt/splunk",
						"sleep 30",
						"echo \"/dev/sdc /opt/splunk ext4 defaults,nofail\" >> /etc/fstab",
						"mount -a",
						"cd /home/ec2-user",
						"sudo rpm -i splunk-6.5.3-36937ad027d4-linux-2.6-x86_64.rpm",
						"cd /opt/splunk/bin",
						"sudo ./splunk start --accept-license --answer-yes --no-prompt",
						"./splunk edit user admin -password admin -role admin -auth admin:changeme",
						"cd /opt/splunk/bin",
						"sudo ./splunk restart",
						"sleep 2m",
						"if [ ! -f /opt/splunk/etc/system/local/web.conf ]; then",
						"echo \"[settings]",
						"enableSplunkWebSSL = 0",
						"sslVersions = tls1.2\" >> /opt/splunk/etc/system/local/web.conf",
						"fi",
						"mkdir -p /opt/splunk/etc/apps/splunk_httpinput/local",
						"mkdir -p /opt/splunk/etc/auth/mycerts",
						"cp -f /home/ec2-user/aws_scripts/cacert.pem /opt/splunk/etc/auth/mycerts",
						"cp -f /home/ec2-user/aws_scripts/splunkindexer.webservices.com.chained.keycrt.pem /opt/splunk/etc/auth/mycerts",
						"echo \"[splunktcp-ssl://9997]",
						"disabled = 0",
						"[SSL]",
						"sslVersions = tls1.2",
						"serverCert = /opt/splunk/etc/auth/mycerts/splunkindexer.webservices.com.chained.keycrt.pem",
						"rootCA = /opt/splunk/etc/auth/mycerts/cacert.pem",
						"cipherSuite = ALL:!DES:!3DES:!DES-CBC3-SHA:!RC4-MD5:!RC4-SHA",
						"sslCommonNameToCheck = splunkindexer.webservices.com\" >> /opt/splunk/etc/system/local/inputs.conf",
						"echo \"[replication_port://8081]",
						"[clustering]",
						"master_uri = https://splunkmaster.webservices.com:8089",
						"mode = slave",
						"pass4SymmKey = boi@cg",
						"[diskUsage]",
						"minFreeSpace = 500",
						"[license]",
						"master_uri = https://splunkmaster.webservices.com:8089",
						"[sslConfig]",
						"serverCert = /opt/splunk/etc/auth/mycerts/splunkindexer.webservices.com.chained.keycrt.pem",
						"sslPassword = $1$RQp+kocaus6l",
						"sslRootCAPath = /opt/splunk/etc/auth/mycerts/cacert.pem",
						"sslVersions = tls1.2\" >> /opt/splunk/etc/system/local/server.conf",
						"AZ=$(curl -s http://169.254.169.254/latest/meta-data/placement/availability-zone)",
						"AZ_Prefix=${AZ::-1}",
						"if [ $AZ == \"${AZ_Prefix}a\" ]; then ",
						"SITE='site1' ",
						"elif [ $AZ == \"${AZ_Prefix}b\" ];then",
						"SITE='site2'",
						"elif [ $AZ == \"${AZ_Prefix}c\" ];then",
						"SITE='site3'",
						"fi",
						"touch /root/site.txt",
						"echo \"Current Site is $SITE\" >> /tmp/site.txt",
						"if [ ! -f /opt/splunk/etc/system/local/deploymentclient.conf ]; then",
						"echo \"[target-broker:deploymentServer]",
						"targetUri = splunkmaster.webservices.com:8089\" >> /opt/splunk/etc/system/local/deploymentclient.conf",
						"fi",
						"sed -i \"/^host =/s/=.*/= $(hostname)/\"  /opt/splunk/etc/system/local/inputs.conf",
						"sed -i \"/^serverName =/s/=.*/= $(hostname)/\"  /opt/splunk/etc/system/local/server.conf",
						"sed -i \"4isite = $SITE\" /opt/splunk/etc/system/local/server.conf",
						"sed -i '8isslVersions = tls1.2' /opt/splunk/etc/system/local/server.conf",
						"sed -i '9iserverCert = /opt/splunk/etc/auth/mycerts/splunkindexer.webservices.com.chained.keycrt.pem' /opt/splunk/etc/system/local/server.conf",
						"sed -i '10isslRootCAPath = /opt/splunk/etc/auth/mycerts/cacert.pem' /opt/splunk/etc/system/local/server.conf",
						"cd /opt/splunk/bin",
						"./splunk restart",
						"fi"
						]]
					}
				}
			}
		},
		"AutoScalingGroupForSplunkIndexer": {
			"Type": "AWS::AutoScaling::AutoScalingGroup",
			"DependsOn": "AutoScalingGroupForSplunkMaster",
			"Metadata": {
				"Comment": "Auto scaling group for Splunk Indexer"
			},
			"Properties": {
				"DesiredCapacity": "2",
				"HealthCheckType": "EC2",
				"LaunchConfigurationName": {
					"Ref": "LaunchConfigForSplunkIndexer"
				},
				"MaxSize": "2",
				"MetricsCollection": [{
					"Granularity": "1Minute",
					"Metrics": [
						"GroupDesiredCapacity"
					]
				}],
				"MinSize": "2",
				"NotificationConfigurations" : [{
					"TopicARN": {
						"Ref" : "BOIScaleUpMonitors"
					},
					"NotificationTypes" : [
						"autoscaling:EC2_INSTANCE_LAUNCH",
						"autoscaling:EC2_INSTANCE_LAUNCH_ERROR"
					]
				},
				{
					"TopicARN": {
						"Ref" : "BOIScaleDownMonitors"
					},
					"NotificationTypes" : [
						"autoscaling:EC2_INSTANCE_TERMINATE",
						"autoscaling:EC2_INSTANCE_TERMINATE_ERROR"
					]
				}],
				"LoadBalancerNames": [{
					"Ref": "SplunkIndexerCLB"
				}],
				"Tags": [{
					"Key": "Name",
					"Value": {
						"Fn::Join": ["", ["SplunkIndexer_", {
							"Ref": "ClientName"
						},
						{
							"Ref": "Environment"
						}
					]]
					},
					"PropagateAtLaunch": "true"
				}],
				"VPCZoneIdentifier": [{
					"Ref": "LoggingSubnetAZ1"
				},
                {
                    "Ref": "LoggingSubnetAZ2"
                }]
			},
			"UpdatePolicy": {
				"AutoScalingScheduledAction": {
					"IgnoreUnmodifiedGroupSizeProperties": "true"
				},
				"AutoScalingRollingUpdate": {
					"MaxBatchSize": "1",
					"MinInstancesInService": "1",
					"PauseTime": "PT10M",
					"WaitOnResourceSignals": "false"
				}
			}
		},
		"LaunchConfigForSplunkSearchHead": {
			"Type": "AWS::AutoScaling::LaunchConfiguration",
			"Properties": {
				"ImageId": {
					"Fn::FindInMap": ["RegionToAmiMapForSplunk", {
						"Ref": "AWS::Region"
					}, "SplunkAmi"]
				},
				"InstanceType": "c4.4xlarge",
				"BlockDeviceMappings": [
					{"DeviceName": "/dev/xvda",
					"Ebs": {
						"DeleteOnTermination": "false",
						"VolumeSize": "20",
						"VolumeType": "gp2"
					}},
					{"DeviceName": "/dev/sdb",
					"Ebs": {
						"DeleteOnTermination": "false",
						"VolumeSize": "10",
						"VolumeType": "gp2"
					}}
				],
				"IamInstanceProfile": {
					"Ref": "InstanceProfileForSplunkInstanceRole"
				},
				"KeyName": {
					"Ref": "KeyName"
				},
				"SecurityGroups": [{
					"Ref": "SplunkSecurityGroup"
				}],
				"UserData": {
					"Fn::Base64": {
						"Fn::Join": ["\n", [
							"#!/bin/bash",
							{
								"Fn::Join": [
									"", [
										"PrivateHostedZoneId=",
										{
											"Ref": "PrivateHostedZoneId"
										},
										"\n",
										"S3_BUCKET_NAME=",
										{
											"Ref": "ClientName"
										}, "-", {
											"Ref": "CloudFormationS3Bucket"
										}, "-", {
											"Ref": "Environment"
										},
										"\n",
										"HttpProxyIporDNS=",
										{
											"Ref": "HttpProxyIporDNS"
										},
										"\n",
										"PrivateDomainName=",
										{
											"Ref": "PrivateDomainName"
										},
										"\n",
										"REGION=",
										{
											"Ref": "AWS::Region"
										},
										"\n",
										"SplunkS3Bucket=",
										{
											"Ref": "ClientName"
										}, "-", {
											"Ref": "SplunkS3Bucket"
										}, "-", {
											"Ref": "Environment"
										},
										"\n"
									]
								]
							},
							"export https_proxy=${HttpProxyIporDNS}",
							"export no_proxy=169.254.169.254",
							"AZ=$(curl -s http://169.254.169.254/latest/meta-data/placement/availability-zone)","\n",
							"EC2_REGION=$(curl -s http://169.254.169.254/latest/meta-data/placement/availability-zone | sed 's/.$//')","\n",
							"mkdir -p /root/.aws",
							"echo -e \"[default]",
							"region = ${EC2_REGION}\" >> /root/.aws/config", "\n",
							"INSTANCE_ID=$(/opt/aws/bin/ec2-metadata --instance-id | cut -d' ' -f2)","\n",
							"EC2_AVAIL_ZONE=$(curl -s http://169.254.169.254/latest/meta-data/placement/availability-zone)","\n",
							"Instance_Name=$(aws ec2 describe-instances --instance-id $INSTANCE_ID --query 'Reservations[*].Instances[*].[Tags[?Key==`Name`].Value]' | sed 's/\\[\\]//'g | grep 'SplunkSearch' | sed 's/\"//g' | sed -e 's/^[ \t]*//')","\n",
							"echo \"Instance_name=$Instance_Name\" > /tmp/Instance_name.txt" ,													
							"tag_names=$(aws ec2 describe-instances --filters Name=tag-key,Values=\"Name\" Name=tag-value,Values=\"${Instance_Name}\" Name=instance-state-name,Values=\"running\" --query 'Reservations[*].Instances[*].[InstanceId]' | sed 's/\\[\\]//'g)", "\n",
							"tag_count=$(echo $tag_names | awk -F\"i-\" '{print NF-1}')", "\n",
							"echo \"Tag_count at $(date) is: ${tag_count}\" > /tmp/tag_count.txt",												 
							"if [[ -n ${S3_BUCKET_NAME} && -n ${HttpProxyIporDNS} ]]; then",
							"aws s3 --no-verify-ssl cp s3://${S3_BUCKET_NAME}/user-data/common.sh /root/common.sh --region ${REGION}",
							"else",
							"echo \"please provide Variables Value for S3_BUCKET_NAME, HttpProxyIporDNS\"",
							"fi",
							"if [[ -f \"/root/common.sh\" ]]; then",
							"source \"/root/common.sh\"",
							"else",
							"echo \"common libs does not exist\"",
							"exit 1",
							"fi",
							"if (( $?==0 )); then",
							"ProxySettings ${HttpProxyIporDNS} \"/etc/bashrc\"",
							"ProxySettingsForYum ${HttpProxyIporDNS}",
							"InstallPackage /home/ec2-user/aws_scripts/amazon-ssm-agent.rpm",
							"ProxySettingsforSSM ${HttpProxyIporDNS}",
							"StartOrStopService amazon-ssm-agent",
							"ConfigureAwsLogAgent ${HttpProxyIporDNS}",
							"fi",
							"sudo service chronyd start",
							"if [ $tag_count -eq '2' ]; then",
							"Tag_instance_check=$(aws ec2 describe-instances --filters Name=tag-key,Values=\"Instance_Number\" Name=instance-state-name,Values=\"running\" Name=tag-value,Values=\"${Instance_Name}2\" --query 'Reservations[*].Instances[*].[Tags[?Key==`Instance_Number`].Value]' | sed 's/\\[\\]//'g | grep \"${Instance_Name}\" | sed 's/\"//g' | sed -e 's/^[ \t]*//')",
							"fi", "\n",
							"if [ \"$tag_count\" -eq '1' ]; then",
							"aws ec2 create-tags --resources $INSTANCE_ID --tags Key=Instance_Number,Value=\"${Instance_Name}1\" ",
							"echo \"create route 53 entry for captain for tag_count = 1\" > /tmp/route53_tag_count1.txt",																		
							"echo export IP='$(curl http://169.254.169.254/latest/meta-data/local-ipv4 )' >> /etc/bashrc",
							"sed -i \"s/IPADDRESS/$IP/g\" /home/ec2-user/change.json",
							"sed -i \"s/subdomain/splunkcaptain/g\" /home/ec2-user/change.json",
							"sleep 30",
							"aws route53 change-resource-record-sets --hosted-zone-id $PrivateHostedZoneId --change-batch file:///home/ec2-user/change.json",
							"fi",
							"elif [ $tag_count -eq '2' ]; then",
							"if [ -z \"${Tag_instance_check}\" ]; then",
							"aws ec2 create-tags --resources $INSTANCE_ID --tags Key=Instance_Number,Value=\"${Instance_Name}2\" ",
							"elif [ \"${Tag_instance_check}\" == \"${Instance_Name}2\" ]; then",
							"aws ec2 create-tags --resources $INSTANCE_ID --tags Key=Instance_Number,Value=\"${Instance_Name}1\"",
							"echo \"create route 53 entry for captain for tag_count =2\" > /tmp/route53_tag_count2.txt",																	   
							"echo export IP='$(curl http://169.254.169.254/latest/meta-data/local-ipv4 )' >> /etc/bashrc",
							"sed -i \"s/IPADDRESS/$IP/g\" /home/ec2-user/change.json",
							"sed -i \"s/subdomain/splunkcaptain/g\" /home/ec2-user/change.json",
							"sleep 30",
							"aws route53 change-resource-record-sets --hosted-zone-id $PrivateHostedZoneId --change-batch file:///home/ec2-user/change.json",
							"fi",
							"fi",
							"fi",
							"Tag_instance_Current=$(aws ec2 describe-instances --instance-ids $INSTANCE_ID --filters Name=instance-state-name,Values=\"running\" Name=tag-key,Values=\"Instance_Number\" Name=tag-value,Values=\"${Instance_Name}1\" --query 'Reservations[*].Instances[*].[Tags[?Key==`Instance_Number`].Value]' | sed 's/\\[\\]//g' | grep \"${Instance_Name}1\" | sed 's/\"//g' | sed -e 's/^[ \t]*//' )",
							"if [ ! -z ${Tag_instance_Current} -a $Tag_instance_Current == \"${Instance_Name}1\" ]; then",
							"snapshotid_latest=$(aws ec2 describe-snapshots --filters Name=tag-key,Values=\"Name\" Name=tag-value,Values=\"SplunkSearchHeadCaptain\" --query 'Snapshots[0].{SnapshotId:SnapshotId}' | awk -F\": \" '{print $2}' | sed 's/\"//g')",
							"elif [ -z ${Tag_instance_Current} ]; then",
							"snapshotid_latest=$(aws ec2 describe-snapshots --filters Name=tag-key,Values=\"Name\" Name=tag-value,Values=\"SplunkSearchHeadMember\" --query 'Snapshots[0].{SnapshotId:SnapshotId}' | awk -F\": \" '{print $2}' | sed 's/\"//g')",
							"fi", "\n",
							"if [ ! -z ${snapshotid_latest} ]; then",
							"aws ec2 create-volume --availability-zone ${AZ} --snapshot-id ${snapshotid_latest} --tag-specifications 'ResourceType=volume,Tags=[{Key=InstanceId,Value='$INSTANCE_ID'}]'",
							"sleep 40",
							"volID=$(aws ec2 describe-volumes --filters Name=tag-key,Values=\"InstanceId\" Name=tag-value,Values=\"$INSTANCE_ID\" --query 'Volumes[*].{ID:VolumeId}' | awk -F\": \" '{print $2}' | sed 's/\"//g')",
							"sleep 5",
							"aws ec2 attach-volume --volume-id ${volID} --instance-id ${INSTANCE_ID} --device /dev/sdc",
							"sleep 15",
							"mkdir -p /opt/splunk",
							"echo \"/dev/sdc /opt/splunk ext4 defaults,nofail\" >> /etc/fstab",
							"mount -a",
							"sleep 30",
							"sed -i \"/^host =/s/=.*/= $(hostname)/\"  /opt/splunk/etc/system/local/inputs.conf",
							"sed -i \"/^serverName =/s/=.*/= $(hostname)/\"  /opt/splunk/etc/system/local/server.conf",
							"sudo /opt/splunk/bin/splunk restart",
							"else",
							"aws ec2 create-volume --availability-zone ${AZ} --size 50 --volume-type gp2 --tag-specifications 'ResourceType=volume,Tags=[{Key=InstanceId,Value='$INSTANCE_ID'}]'",
							"sleep 40",
							"volID=$(aws ec2 describe-volumes --filters Name=tag-key,Values=\"InstanceId\" Name=tag-value,Values=\"$INSTANCE_ID\" --query 'Volumes[*].{ID:VolumeId}' | awk -F\": \" '{print $2}' | sed 's/\"//g')",
							"sleep 5",
							"aws ec2 attach-volume --volume-id ${volID} --instance-id ${INSTANCE_ID} --device /dev/sdc",
							"sleep 10",
							"if [[ ! -d /opt/splunk ]]; then",
							"mkfs -t ext4 /dev/sdc >> /home/ec2-user/filelog.txt",
							"sleep 20",
							"mkdir -p /opt/splunk",
							"sleep 10",
							"echo \"/dev/sdc /opt/splunk ext4 defaults,nofail\" >> /etc/fstab",
							"mount -a",
							"cd /home/ec2-user",
							"sudo rpm -i splunk-6.5.3-36937ad027d4-linux-2.6-x86_64.rpm",
							"cd /opt/splunk/bin",
							"sudo ./splunk start --accept-license --answer-yes --no-prompt",
							"sudo ./splunk edit user admin -password admin -role admin -auth admin:changeme", "\n",
							"cp -f /home/ec2-user/aws_scripts/splunksearchhead.webservices.com.chained.keycrt.pem /opt/splunk/etc/auth/splunkweb/",
							"cp -f /home/ec2-user/aws_scripts/splunksearchhead.webservices.com.key.pem /opt/splunk/etc/auth/splunkweb/",
							"sleep 30", "\n",
							"if [ ! -f /opt/splunk/etc/system/local/web.conf ]; then",
							"echo \"[settings]",
							"enableSplunkWebSSL = true",
							"sslVersions = tls1.2",
							"privKeyPath = /opt/splunk/etc/auth/splunkweb/splunksearchhead.webservices.com.key.pem",
							"serverCert = /opt/splunk/etc/auth/splunkweb/splunksearchhead.webservices.com.chained.keycrt.pem\" >> /opt/splunk/etc/system/local/web.conf",
							"fi",
							"mkdir -p /opt/splunk/etc/apps/splunk_httpinput/local",
							"mkdir -p /opt/splunk/etc/auth/mycerts",
							"cp -f /home/ec2-user/aws_scripts/cacert.pem /opt/splunk/etc/auth/mycerts",
							"cp -f /home/ec2-user/aws_scripts/splunksearchhead.webservices.com.chained.keycrt.pem /opt/splunk/etc/auth/mycerts", "\n",
							"echo \"[SSL]",
							"sslVersions = tls1.2",
							"serverCert = /opt/splunk/etc/auth/mycerts/splunksearchhead.webservices.com.chained.keycrt.pem",
							"rootCA = /opt/splunk/etc/auth/mycerts/cacert.pem",
							"cipherSuite = ALL:!DES:!3DES:!DES-CBC3-SHA:!RC4-MD5:!RC4-SHA\" >> /opt/splunk/etc/system/local/inputs.conf", "\n",
							"touch /opt/splunk/etc/system/local/outputs.conf", "\n",
							"echo \"[indexAndForward]",
							"index = false",
							"[indexer_discovery:master1]",
							"master_uri = https://splunkmaster.webservices.com:8089",
							"pass4SymmKey = boi@123", "\n",
							"[tcpout:my_peers_nodes]",
							"indexerDiscovery = master1",
							"autoLB = true",
							"clientCert = /opt/splunk/etc/auth/mycerts/splunksearchhead.webservices.com.chained.keycrt.pem",
							"sslRootCAPath = /opt/splunk/etc/auth/mycerts/cacert.pem",
							"sslCommonNameToCheck = splunkindexer.webservices.com",
							"sslVerifyServerCert = true",
							"useACK = true", "\n",
							"[tcpout]",
							"defaultGroup = my_peers_nodes",
							"forwardedindex.filter.disable = true\" >> /opt/splunk/etc/system/local/outputs.conf", "\n",
							"echo \"[diskUsage]",
							"minFreeSpace = 500",
							"[license]",
							"master_uri = https://splunkmaster.webservices.com:8089\" >> /opt/splunk/etc/system/local/server.conf", "\n",
							"if [ ! -f /opt/splunk/etc/system/local/deploymentclient.conf ]; then",
							"echo \"[target-broker:deploymentServer]",
							"targetUri = splunkmaster.webservices.com:8089\" >> /opt/splunk/etc/system/local/deploymentclient.conf",
							"fi", "\n",
							"sed -i \"/^host =/s/=.*/= $(hostname)/\"  /opt/splunk/etc/system/local/inputs.conf",
							"sed -i \"/^serverName =/s/=.*/= $(hostname)/\"  /opt/splunk/etc/system/local/server.conf",
							"sed -i '7isslVersions = tls1.2' /opt/splunk/etc/system/local/server.conf",
							"sed -i '8iserverCert = /opt/splunk/etc/auth/mycerts/splunksearchhead.webservices.com.chained.keycrt.pem' /opt/splunk/etc/system/local/server.conf",
							"sed -i '9isslRootCAPath = /opt/splunk/etc/auth/mycerts/cacert.pem' /opt/splunk/etc/system/local/server.conf",
							"sudo /opt/splunk/bin/splunk restart",
							"fi",
							"fi", "\n",
							"sleep 150",
							"echo -e \"starting splunk edit cluster-config\" >> /tmp/splunk_edit_cluster-config.txt",
							"sudo /opt/splunk/bin/splunk edit cluster-config -auth admin:admin -mode searchhead -master_uri https://splunkmaster.webservices.com:8089 -replication_port 8080 -multisite true -site site0 -secret boi@cg",
							"echo -e \"$?\" >> /tmp/splunk_edit_cluster-config.txt",
							"sleep 5",
							"sudo /opt/splunk/bin/splunk restart",
							"echo -e \"$?\" >> /tmp/splunk_edit_cluster-config.txt",
							"echo -e \"starting splunk init shcluster-config\" >> /tmp/splunk_init_shcluster-config.txt",
							"sudo /opt/splunk/bin/splunk init shcluster-config -auth admin:admin -mgmt_uri https://$(hostname):8089  -replication_port 8080 -replication_factor 2 -conf_deploy_fetch_url https://splunkmaster.webservices.com:8089 -shcluster_label shcluster",
							"echo -e \"$?\" >> /tmp/splunk_init_shcluster-config.txt",
							"sleep 20",
							"sudo /opt/splunk/bin/splunk restart", "\n",
							"echo -e \"$?\" >> /tmp/splunk_init_shcluster-config.txt",
							"hostIPs=$(aws ec2 describe-instances --filters Name=tag-key,Values=\"Name\" Name=tag-value,Values=\"${Instance_Name}\" --query 'Reservations[*].Instances[*].[PrivateIpAddress]' | grep [0-10])",
							"hostname1IP=$(echo $hostIPs | awk -F\" \" '{print $1}' | sed 's/\"//g')",
							"hostname2IP=$(echo $hostIPs | awk -F\" \" '{print $2}' | sed 's/\"//g')",
							"hostname1=ip-$(echo $hostname1IP | sed 's/\\./-/g')",
							"hostname2=ip-$(echo $hostname2IP | sed 's/\\./-/g')", "\n",
							"if [ ${Tag_instance_Current} == \"${Instance_Name}1\" ]; then",
							"if [ $(hostname) == ${hostname1} ]; then",
							"host_captain=${hostname1}",
							"host_other=${hostname2}",
							"echo -e \"\nhost_captain=${host_captain}\" >> /tmp/captainloop.txt",
							"echo -e \"\nhost_other=${hostname2}\" >> /tmp/captainloop.txt",
							"elif [ $(hostname) == ${hostname2} ]; then",
							"host_captain=${hostname2}",
							"host_other=${hostname1}",
							"echo -e \"\nhost_captain=${host_captain}\" >> /tmp/captainloop.txt",
							"echo -e \"\nhost_other=${hostname1}\" >> /tmp/captainloop.txt",
							"fi",
							"if [ ! -z \"${host_captain}\" -a \"$(hostname)\" == \"${host_captain}\" ]; then",
							"echo -e \"\n into line 178\" >> /tmp/captainloop.txt",
							"sudo /opt/splunk/bin/splunk edit shcluster-config -mode captain -captain_uri https://${host_captain}:8089 -election false -auth admin:admin",
							"echo -e \"\nsplunk edit shcluster-config -mode captain -captain_uri for static captain in captain node: $host_captain\" >> /tmp/captainloop.txt",
							"fi",
							"sudo /opt/splunk/bin/splunk restart",
							"fi", "\n",
							"if [ -z ${Tag_instance_Current} ]; then",
							"echo -e \"\nPIT1 case\" >> /tmp/captainloop.txt",
							"if [ $(hostname) == ${hostname1} ]; then",
							"host_captain=${hostname2}",
							"host_other=${hostname1}",
							"echo -e \"\nhost_captain=${hostname2}\" >> /tmp/captainloop.txt",
							"echo -e \"\nhost_other=${hostname1}\" >> /tmp/captainloop.txt",
							"sleep 150",
							"sudo /opt/splunk/bin/splunk edit shcluster-config -mode member -captain_uri https://splunkcaptain.webservices.com:8089 -election false -auth admin:admin",
							"echo -e \"\nRunniung splunk edit shcluster-config -mode member -captain_uri for static captain in other ip: $host_other\" >> /tmp/captainloop.txt",
							"elif [ $(hostname) == ${hostname2} ]; then",
							"host_other=${hostname2}",
							"host_captain=${hostname1}",
							"echo -e \"\nhost_captain=${hostname1}\" >> /tmp/captainloop.txt",
							"echo -e \"\nhost_other=${hostname2}\" >> /tmp/captainloop.txt",
							"echo -e \"nstarting cmd:/opt/splunk/bin/splunk edit shcluster-config -mode member -captain_uri https://splunkcaptain.webservices.com:8089 -election false -auth admin:admin\" >> /tmp/captainloop.txt",
							"sleep 150",
							"sudo /opt/splunk/bin/splunk edit shcluster-config -mode member -captain_uri https://splunkcaptain.webservices.com:8089 -election false -auth admin:admin",
							"fi",
							"fi",
							"sudo /opt/splunk/bin/splunk restart"
						]]
					}
				}
			}
		},
		"AutoScalingGroupForSplunkSearchHead": {
			"Type": "AWS::AutoScaling::AutoScalingGroup",
			"DependsOn": "AutoScalingGroupForSplunkIndexer",
			"Metadata": {
				"Comment": "Auto scaling group for Splunk Search Head"
			},
			"Properties": {
				"DesiredCapacity": "2",
				"HealthCheckType": "EC2",
				"LaunchConfigurationName": {
					"Ref": "LaunchConfigForSplunkSearchHead"
				},
				"MaxSize": "2",
				"MetricsCollection": [{
					"Granularity": "1Minute",
					"Metrics": [
						"GroupDesiredCapacity"
					]
				}],
				"MinSize": "2",
				"TargetGroupARNs": [{
					"Ref": "SplunkSearchHeadTargetGroup"
				}],
				"NotificationConfigurations" : [{
					"TopicARN": {
						"Ref" : "BOIScaleUpMonitors"
					},
					"NotificationTypes" : [
						"autoscaling:EC2_INSTANCE_LAUNCH",
						"autoscaling:EC2_INSTANCE_LAUNCH_ERROR"
					]
				},
				{
					"TopicARN": {
						"Ref" : "BOIScaleDownMonitors"
					},
					"NotificationTypes" : [
						"autoscaling:EC2_INSTANCE_TERMINATE",
						"autoscaling:EC2_INSTANCE_TERMINATE_ERROR"
					]
				}],
				"Tags": [{
					"Key": "Name",
					"Value": {
						"Fn::Join": ["", ["SplunkSearchHead_", {
							"Ref": "ClientName"
						},
						{
							"Ref": "Environment"
						}
					]]
					},
					"PropagateAtLaunch": "true"
				}],
				"VPCZoneIdentifier": [{
					"Ref": "LoggingSubnetAZ1"
				},
                {
                    "Ref": "LoggingSubnetAZ2"
                }]
			},
			"UpdatePolicy": {
				"AutoScalingScheduledAction": {
					"IgnoreUnmodifiedGroupSizeProperties": "true"
				},
				"AutoScalingRollingUpdate": {
					"MaxBatchSize": "1",
					"MinInstancesInService": "1",
					"PauseTime": "PT10M",
					"WaitOnResourceSignals": "false"
				}
			}
		},
		"LogsGroupSplunkIndexer": {
			"Type": "AWS::Logs::LogGroup",
			"Properties": {
				"LogGroupName": {
					"Fn::Join": ["", ["/var/log/SplunkIndexer_", {
							"Ref": "ClientName"
						},
						{
							"Ref": "Environment"
						}
					]]
				}
			}
		},
		"LogsGroupSplunkMaster": {
			"Type": "AWS::Logs::LogGroup",
			"Properties": {
				"LogGroupName": {
					"Fn::Join": ["", ["/var/log/SplunkMaster_", {
							"Ref": "ClientName"
						},
						{
							"Ref": "Environment"
						}
					]]
				}
			}
        },
		"LogsGroupSplunkSearchHead": {
			"Type": "AWS::Logs::LogGroup",
			"Properties": {
				"LogGroupName": {
					"Fn::Join": ["", ["/var/log/SplunkSearchHead_", {
							"Ref": "ClientName"
						},
						{
							"Ref": "Environment"
						}
					]]
				}
			}
		},
		"AlarmForInstanceStatusCheckOfSplunkIndexer": {
			"Type": "AWS::CloudWatch::Alarm",
			"Metadata": {
				"Comment": "Alarm for SplunkIndexer it goes active when the status check of any instance in AutoScalingGroupForSplunkIndexer fails"
			},
			"Properties": {
				"AlarmActions": [{
					"Ref": "BOISystemHealthMonitors"
				}],
				"AlarmDescription": "Instance status check alarm for splunk server autoscaling group",
				"ComparisonOperator": "GreaterThanOrEqualToThreshold",
				"Dimensions": [{
					"Name": "AutoScalingGroupName",
					"Value": {
						"Ref": "AutoScalingGroupForSplunkIndexer"
					}
				}],
				"EvaluationPeriods": "1",
				"MetricName": "StatusCheckFailed",
				"Namespace": "AWS/EC2",
				"Period": "300",
				"Statistic": "Average",
				"Threshold": "1",
				"Unit": "Count"
			}
		},
		"CPUHighAlarmForSplunkIndexer": {
			"Type": "AWS::CloudWatch::Alarm",
			"Metadata": {
				"Comment": "Alarm for Splunk Indexer it goes active when the CPU utilization is more than 80 percent for five consecutive minuites"
			},
			"Properties": {
				"AlarmActions": [{
					"Ref": "ScaleUpPolicyForSplunkIndexer"
				},
				{
					"Ref": "BOIEC2Monitors"
				}],
				"AlarmDescription": "CPU alarm for SplunkIndexer",
				"ComparisonOperator": "GreaterThanThreshold",
				"Dimensions": [{
					"Name": "AutoScalingGroupName",
					"Value": {
						"Ref": "AutoScalingGroupForSplunkIndexer"
					}
				}],
				"EvaluationPeriods": "1",
				"MetricName": "CPUUtilization",
				"Namespace": "AWS/EC2",
				"Period": "300",
				"Statistic": "Average",
				"Threshold": "85"
			}
		},
		"CPULowAlarmForSplunkIndexer": {
			"Type": "AWS::CloudWatch::Alarm",
			"Metadata": {
				"Comment": "Alarm for Splunk Indexer it goes active when the CPU utilization is less than 25 percent for 15 consecutive minuites"
			},
			"Properties": {
				"AlarmActions": [{
					"Ref": "ScaleDownPolicyForSplunkIndexer"
				},
				{
					"Ref": "BOIEC2Monitors"
				}],
				"AlarmDescription": "CPU Low alarm for SplunkIndexer",
				"ComparisonOperator": "LessThanThreshold",
				"Dimensions": [{
					"Name": "AutoScalingGroupName",
					"Value": {
						"Ref": "AutoScalingGroupForSplunkIndexer"
					}
				}],
				"EvaluationPeriods": "1",
				"MetricName": "CPUUtilization",
				"Namespace": "AWS/EC2",
				"Period": "300",
				"Statistic": "Average",
				"Threshold": "25"
			}
		},
		"AlarmForInstanceStatusCheckOfSplunkMaster": {
			"Type": "AWS::CloudWatch::Alarm",
			"Metadata": {
				"Comment": "Alarm for SplunkMaster servers it goes active when the status check of splunk master fails"
			},
			"Properties": {
				"AlarmActions": [{
					"Ref": "BOISystemHealthMonitors"
				}],
				"AlarmDescription": "Instance status check alarm for SplunkMater",
				"ComparisonOperator": "GreaterThanOrEqualToThreshold",
				"Dimensions": [{
					"Name": "AutoScalingGroupName",
					"Value": {
						"Ref": "AutoScalingGroupForSplunkMaster"
					}
				}],
				"EvaluationPeriods": "1",
				"MetricName": "StatusCheckFailed",
				"Namespace": "AWS/EC2",
				"Period": "300",
				"Statistic": "Average",
				"Threshold": "1",
				"Unit": "Count"
			}
		},
		"CPUHighAlarmForSplunkMasterServer": {
			"Type": "AWS::CloudWatch::Alarm",
			"Metadata": {
				"Comment": "Alarm for SplunkMaster servers it goes active when the CPU Utilization for Splunk Master is more than 85% for 5 mins"
			},
			"Properties": {
				"AlarmActions": [{
					"Ref": "BOIEC2Monitors"
				}],
				"AlarmDescription": "Instance status check alarm for SplunkMaster",
				"ComparisonOperator": "GreaterThanThreshold",
				"Dimensions": [{
					"Name": "AutoScalingGroupName",
					"Value": {
						"Ref": "AutoScalingGroupForSplunkMaster"
					}
				}],
				"EvaluationPeriods": "1",
				"MetricName": "CPUUtilization",
				"Namespace": "AWS/EC2",
				"Period": "300",
				"Statistic": "Average",
				"Threshold": "85"
			}
		},

		"ScaleUpPolicyForSplunkIndexer": {
			"Type": "AWS::AutoScaling::ScalingPolicy",
			"Metadata": {
				"Comment": "ScaleUp policy attached to the Auto scaling group for SplunkIndexer"
			},
			"Properties": {
				"AdjustmentType": "ChangeInCapacity",
				"AutoScalingGroupName": {
					"Ref": "AutoScalingGroupForSplunkIndexer"
				},
				"Cooldown": "60",
				"ScalingAdjustment": "1"
			}
		},
		"ScaleDownPolicyForSplunkIndexer": {
			"Type": "AWS::AutoScaling::ScalingPolicy",
			"Metadata": {
				"Comment": "ScaleDown policy attached to the Auto scaling group for SplunkIndexer"
			},
			"Properties": {
				"AdjustmentType": "ChangeInCapacity",
				"AutoScalingGroupName": {
					"Ref": "AutoScalingGroupForSplunkIndexer"
				},
				"Cooldown": "60",
				"ScalingAdjustment": "-1"
			}
		},
		"AlarmForInstanceStatusCheckOfSplunkSearchHead": {
			"Type": "AWS::CloudWatch::Alarm",
			"Metadata": {
				"Comment": "Alarm for Splunk Search Head it goes active when the status check of splunk Search Head fails"
			},
			"Properties": {
				"AlarmActions": [{
					"Ref": "BOISystemHealthMonitors"
				}],
				"AlarmDescription": "Instance status check alarm for SplunkSearchHead",
				"ComparisonOperator": "GreaterThanOrEqualToThreshold",
				"Dimensions": [{
					"Name": "AutoScalingGroupName",
					"Value": {
						"Ref": "AutoScalingGroupForSplunkSearchHead"
					}
				}],
				"EvaluationPeriods": "1",
				"MetricName": "StatusCheckFailed",
				"Namespace": "AWS/EC2",
				"Period": "300",
				"Statistic": "Average",
				"Threshold": "1",
				"Unit": "Count"
			}
		},
		"CPUHighAlarmForSplunkSearchHead": {
			"Type": "AWS::CloudWatch::Alarm",
			"Metadata": {
				"Comment": "Alarm for Splunk Search Head servers it goes active when the CPU Utilization for Splunk Search Head is more than 85% for 5 mins"
			},
			"Properties": {
				"AlarmActions": [{
					"Ref": "BOIEC2Monitors"
				}],
				"AlarmDescription": "Instance status check alarm for SplunkSearchHead",
				"ComparisonOperator": "GreaterThanThreshold",
				"Dimensions": [{
					"Name": "AutoScalingGroupName",
					"Value": {
						"Ref": "AutoScalingGroupForSplunkSearchHead"
					}
				}],
				"EvaluationPeriods": "1",
				"MetricName": "CPUUtilization",
				"Namespace": "AWS/EC2",
				"Period": "300",
				"Statistic": "Average",
				"Threshold": "85"
			}
		}
    }
}
