{
	"AWSTemplateFormatVersion": "2010-09-09",
	"Description": "CloudFormation Template to provision the SNS Topics and Subscription",
	"Parameters": {
		"AdminSNSSubscriberEmailAddress": {
			"Description": "Email Address for Admin SNS Subscription",
			"Type": "String"
		},
		"BounceSNSSubscriberEmailAddress": {
			"Description": "Email Address for Bounce SNS Subscription",
			"Type": "String"
		},
		"ComplaintSNSSubscriberEmailAddress": {
			"Description": "Email Address for Complaint SNS Subscription",
			"Type": "String"
		},
		"TrendMicroSNSSubscriberEmailAddress": {
			"Description": "Email Address for TrendMicro SNS Subscription",
			"Type": "String"
		},
		"ProvisionProxy": {
			"Type": "String",
			"Default": "yes",
			"AllowedValues": ["yes", "no"],
			"Description": "To provision Proxy or not"
		},
		"ProvisionTrendMicro": {
			"Type": "String",
			"Default": "yes",
			"AllowedValues": ["yes", "no"],
			"Description": "To provision TrendMicro Anti Malware or not"
		}
	},
	"Conditions":{
		"ProvisionProxyActivated": {
			"Fn::Equals": [{
				"Ref": "ProvisionProxy"
			}, "yes"]
		},
		"ProvisionTrendMicroActivated": {
			"Fn::Equals": [{
				"Ref": "ProvisionTrendMicro"
			}, "yes"]
		}
	},
	"Resources": {
		"BOIEC2Monitors": {
			"Type": "AWS::SNS::Topic",
			"Properties": {
				"Subscription": [{
					"Endpoint": {
						"Ref": "AdminSNSSubscriberEmailAddress"
					},
					"Protocol": "email"
				}],
				"TopicName": "BOIEC2Monitors"
			}
		},
		"BOILoadBalancerMonitors": {
			"Type": "AWS::SNS::Topic",
			"Properties": {
				"Subscription": [{
					"Endpoint": {
						"Ref": "AdminSNSSubscriberEmailAddress"
					},
					"Protocol": "email"
				}],
				"TopicName": "BOILoadBalancerMonitors"
			}
		},
		"BOISESEmailBounce": {
			"Type": "AWS::SNS::Topic",
			"Condition": "ProvisionProxyActivated",
			"Properties": {
				"Subscription": [{
					"Endpoint": {
						"Ref": "BounceSNSSubscriberEmailAddress"
					},
					"Protocol": "email"
				}],
				"TopicName": "BOISESEmailBounce"
			}
		},
		"BOISESEmailComplaint": {
			"Type": "AWS::SNS::Topic",
			"Condition": "ProvisionProxyActivated",
			"Properties": {
				"Subscription": [{
					"Endpoint": {
						"Ref": "ComplaintSNSSubscriberEmailAddress"
					},
					"Protocol": "email"
				}],
				"TopicName": "BOISESEmailComplaint"
			}
		},
		"BOIScaleUpMonitors": {
			"Type": "AWS::SNS::Topic",
			"Properties": {
				"Subscription": [{
					"Endpoint": {
						"Ref": "AdminSNSSubscriberEmailAddress"
					},
					"Protocol": "email"
				}],
				"TopicName": "BOIScaleUpMonitors"
			}
		},
		"BOIScaleDownMonitors": {
			"Type": "AWS::SNS::Topic",
			"Properties": {
				"Subscription": [{
					"Endpoint": {
						"Ref": "AdminSNSSubscriberEmailAddress"
					},
					"Protocol": "email"
				}],
				"TopicName": "BOIScaleDownMonitors"
			}
		},
		"BOISystemHealthMonitors": {
			"Type": "AWS::SNS::Topic",
			"Properties": {
				"Subscription": [{
					"Endpoint": {
						"Ref": "AdminSNSSubscriberEmailAddress"
					},
					"Protocol": "email"
				}],
				"TopicName": "BOISystemHealthMonitors"
			}
		},
		"BOITrendMicro": {
			"Type": "AWS::SNS::Topic",
			"Condition": "ProvisionTrendMicroActivated",
			"Properties": {
				"Subscription": [{
					"Endpoint": {
						"Ref": "TrendMicroSNSSubscriberEmailAddress"
					},
					"Protocol": "email"
				}],
				"TopicName": "BOITrendMicro"
			}
		}
	},
	"Outputs": {
		"BOIEC2Monitors": {
			"Description" : "BOIEC2Monitors SNS Topic",
			"Value": {
				"Ref": "BOIEC2Monitors"
			},
			"Export" : {
				"Name" : {
					"Fn::Join" : [ ":", [ { "Ref" : "AWS::StackName" }, "BOIEC2Monitors" ] ]
				}
			}
		},
		"BOILoadBalancerMonitors": {
			"Description" : "BOILoadBalancerMonitors SNS Topic",
			"Value": {
				"Ref": "BOILoadBalancerMonitors"
			},
			"Export" : {
				"Name" : {
					"Fn::Join" : [ ":", [ { "Ref" : "AWS::StackName" }, "BOILoadBalancerMonitors" ] ]
				}
			}
		},
		"BOISESEmailBounce": {
			"Description" : "BOISESEmailBounce SNS Topic",
			"Condition": "ProvisionProxyActivated",
			"Value": {
				"Ref": "BOISESEmailBounce"
			},
			"Export" : {
				"Name" : {
					"Fn::Join" : [ ":", [ { "Ref" : "AWS::StackName" }, "BOISESEmailBounce" ] ]
				}
			}
		},
		"BOISESEmailComplaint": {
			"Description" : "BOISESEmailComplaint SNS Topic",
			"Condition": "ProvisionProxyActivated",
			"Value": {
				"Ref": "BOISESEmailComplaint"
			},
			"Export" : {
				"Name" : {
					"Fn::Join" : [ ":", [ { "Ref" : "AWS::StackName" }, "BOISESEmailComplaint" ] ]
				}
			}
		},
		"BOIScaleUpMonitors": {
			"Description" : "BOIScaleUpMonitors SNS Topic",
			"Value": {
				"Ref": "BOIScaleUpMonitors"
			},
			"Export" : {
				"Name" : {
					"Fn::Join" : [ ":", [ { "Ref" : "AWS::StackName" }, "BOIScaleUpMonitors" ] ]
				}
			}
		},
		"BOIScaleDownMonitors": {
			"Description" : "BOIScaleDownMonitors SNS Topic",
			"Value": {
				"Ref": "BOIScaleDownMonitors"
			},
			"Export" : {
				"Name" : {
					"Fn::Join" : [ ":", [ { "Ref" : "AWS::StackName" }, "BOIScaleDownMonitors" ] ]
				}
			}
		},
		"BOISystemHealthMonitors": {
			"Description" : "BOISystemHealthMonitors SNS Topic",
			"Value": {
				"Ref": "BOISystemHealthMonitors"
			},
			"Export" : {
				"Name" : {
					"Fn::Join" : [ ":", [ { "Ref" : "AWS::StackName" }, "BOISystemHealthMonitors" ] ]
				}
			}
		},
		"BOITrendMicro": {
			"Description" : "BOITrendMicro SNS Topic",
			"Condition": "ProvisionTrendMicroActivated",
			"Value": {
				"Ref": "BOITrendMicro"
			},
			"Export" : {
				"Name" : {
					"Fn::Join" : [ ":", [ { "Ref" : "AWS::StackName" }, "BOITrendMicro" ] ]
				}
			}
		}
	}
}